mtllib ehv12-330-90.mtl
o ehv12-330-90_1
v -35 -632.08 -15.187
v -35 -632.08 15.187
v -37.356 -632.08 -7.755
v -37.356 -632.08 7.755
v -38.153 -632.08 0
v -35 -662.98 15.187
v -35 -662.98 -15.187
v -37.356 -662.98 7.755
v -37.356 -662.98 -7.755
v -38.153 -662.98 0
v 35 -632.08 15.187
v 35 -632.08 -15.187
v 37.356 -632.08 7.755
v 37.356 -632.08 -7.755
v 38.153 -632.08 0
v 35 -662.98 -15.187
v 35 -662.98 15.187
v 37.356 -662.98 -7.755
v 37.356 -662.98 7.755
v 38.153 -662.98 0
v 1.475 -634.14 5.506
v -1.475 -634.14 5.506
v 2.85 -634.14 4.937
v -2.85 -634.14 4.937
v 4.031 -634.14 4.031
v -4.031 -634.14 4.031
v 4.937 -634.14 2.85
v -4.937 -634.14 2.85
v 5.506 -634.14 1.475
v -5.506 -634.14 1.475
v 5.701 -634.14 0
v -5.701 -634.14 0
v 5.506 -634.14 -1.475
v -5.506 -634.14 -1.475
v 4.937 -634.14 -2.85
v -4.937 -634.14 -2.85
v 4.031 -634.14 -4.031
v -4.031 -634.14 -4.031
v 2.85 -634.14 -4.937
v -2.85 -634.14 -4.937
v 1.475 -634.14 -5.506
v -1.475 -634.14 -5.506
v 0 -634.14 -5.701
v 0 -634.14 5.701
v 5.506 -626.312 1.475
v 5.701 -626.312 0
v 5.506 -626.312 -1.475
v 4.937 -626.312 -2.85
v 4.937 -626.312 2.85
v 4.031 -626.312 4.031
v 2.85 -626.312 4.937
v 1.475 -626.312 5.506
v 0 -626.312 5.701
v -1.475 -626.312 5.506
v -2.85 -626.312 4.937
v -4.031 -626.312 4.031
v -4.937 -626.312 2.85
v -5.506 -626.312 1.475
v -5.701 -626.312 0
v -5.506 -626.312 -1.475
v -4.937 -626.312 -2.85
v -4.031 -626.312 -4.031
v -2.85 -626.312 -4.937
v -1.475 -626.312 -5.506
v 0 -626.312 -5.701
v 1.475 -626.312 -5.506
v 2.85 -626.312 -4.937
v 4.031 -626.312 -4.031
v 0 -626.312 7.981
v 2.066 -626.312 7.709
v 3.99 -626.312 6.912
v 5.643 -626.312 5.643
v 6.912 -626.312 3.99
v 7.709 -626.312 2.066
v 7.981 -626.312 0
v -2.066 -626.312 7.709
v -3.99 -626.312 6.912
v -5.643 -626.312 5.643
v -6.912 -626.312 3.99
v -7.709 -626.312 2.066
v -7.981 -626.312 0
v -7.709 -626.312 -2.066
v -6.912 -626.312 -3.99
v -5.643 -626.312 -5.643
v -3.99 -626.312 -6.912
v -2.066 -626.312 -7.709
v 0 -626.312 -7.981
v 2.066 -626.312 -7.709
v 3.99 -626.312 -6.912
v 5.643 -626.312 -5.643
v 6.912 -626.312 -3.99
v 7.709 -626.312 -2.066
v 7.709 -618.484 2.066
v 7.981 -618.484 0
v 7.709 -618.484 -2.066
v 6.912 -618.484 -3.99
v 6.912 -618.484 3.99
v 5.643 -618.484 5.643
v 3.99 -618.484 6.912
v 2.066 -618.484 7.709
v 0 -618.484 7.981
v -2.066 -618.484 7.709
v -3.99 -618.484 6.912
v -5.643 -618.484 5.643
v -6.912 -618.484 3.99
v -7.709 -618.484 2.066
v -7.981 -618.484 0
v -7.709 -618.484 -2.066
v -6.912 -618.484 -3.99
v -5.643 -618.484 -5.643
v -3.99 -618.484 -6.912
v -2.066 -618.484 -7.709
v 0 -618.484 -7.981
v 2.066 -618.484 -7.709
v 3.99 -618.484 -6.912
v 5.643 -618.484 -5.643
v 5.506 -618.484 1.475
v 5.701 -618.484 0
v 5.506 -618.484 -1.475
v 4.937 -618.484 -2.85
v 4.031 -618.484 -4.031
v 2.85 -618.484 -4.937
v 1.475 -618.484 -5.506
v 0 -618.484 -5.701
v 4.937 -618.484 2.85
v 4.031 -618.484 4.031
v 2.85 -618.484 4.937
v 1.475 -618.484 5.506
v 0 -618.484 5.701
v -1.475 -618.484 5.506
v -2.85 -618.484 4.937
v -4.031 -618.484 4.031
v -4.937 -618.484 2.85
v -5.506 -618.484 1.475
v -5.701 -618.484 0
v -5.506 -618.484 -1.475
v -4.937 -618.484 -2.85
v -4.031 -618.484 -4.031
v -2.85 -618.484 -4.937
v -1.475 -618.484 -5.506
v 5.506 -595 1.475
v 5.701 -595 0
v 5.506 -595 -1.475
v 4.937 -595 -2.85
v 4.937 -595 2.85
v 4.031 -595 4.031
v 2.85 -595 4.937
v 1.475 -595 5.506
v 0 -595 5.701
v -1.475 -595 5.506
v -2.85 -595 4.937
v -4.031 -595 4.031
v -4.937 -595 2.85
v -5.506 -595 1.475
v -5.701 -595 0
v -5.506 -595 -1.475
v -4.937 -595 -2.85
v -4.031 -595 -4.031
v -2.85 -595 -4.937
v -1.475 -595 -5.506
v 0 -595 -5.701
v 1.475 -595 -5.506
v 2.85 -595 -4.937
v 4.031 -595 -4.031
v 0 -595 22.802
v 5.902 -595 22.025
v 11.401 -595 19.747
v 16.124 -595 16.124
v 19.747 -595 11.401
v 22.025 -595 5.902
v 22.802 -595 0
v -5.902 -595 22.025
v -11.401 -595 19.747
v -16.124 -595 16.124
v -19.747 -595 11.401
v -22.025 -595 5.902
v -22.802 -595 0
v -22.025 -595 -5.902
v -19.747 -595 -11.401
v -16.124 -595 -16.124
v -11.401 -595 -19.747
v -5.902 -595 -22.025
v 0 -595 -22.802
v 5.902 -595 -22.025
v 11.401 -595 -19.747
v 16.124 -595 -16.124
v 19.747 -595 -11.401
v 22.025 -595 -5.902
v 22.025 -628.058 5.902
v 22.802 -628.058 0
v 22.025 -628.058 -5.902
v 19.747 -628.058 -11.401
v 19.747 -628.058 11.401
v 16.124 -628.058 16.124
v 11.401 -628.058 19.747
v 5.902 -628.058 22.025
v 0 -628.058 22.802
v -5.902 -628.058 22.025
v -11.401 -628.058 19.747
v -16.124 -628.058 16.124
v -19.747 -628.058 11.401
v -22.025 -628.058 5.902
v -22.802 -628.058 0
v -22.025 -628.058 -5.902
v -19.747 -628.058 -11.401
v -16.124 -628.058 -16.124
v -11.401 -628.058 -19.747
v -5.902 -628.058 -22.025
v 0 -628.058 -22.802
v 5.902 -628.058 -22.025
v 11.401 -628.058 -19.747
v 16.124 -628.058 -16.124
v 0 -628.058 25.336
v 6.557 -628.058 24.473
v 12.668 -628.058 21.942
v 17.915 -628.058 17.915
v 21.942 -628.058 12.668
v 24.473 -628.058 6.557
v 25.336 -628.058 0
v -6.557 -628.058 24.473
v -12.668 -628.058 21.942
v -17.915 -628.058 17.915
v -21.942 -628.058 12.668
v -24.473 -628.058 6.557
v -25.336 -628.058 0
v -24.473 -628.058 -6.557
v -21.942 -628.058 -12.668
v -17.915 -628.058 -17.915
v -12.668 -628.058 -21.942
v -6.557 -628.058 -24.473
v 0 -628.058 -25.336
v 6.557 -628.058 -24.473
v 12.668 -628.058 -21.942
v 17.915 -628.058 -17.915
v 21.942 -628.058 -12.668
v 24.473 -628.058 -6.557
v 24.473 -671.318 6.557
v 25.336 -671.318 0
v 24.473 -671.318 -6.557
v 21.942 -671.318 -12.668
v 21.942 -671.318 12.668
v 17.915 -671.318 17.915
v 12.668 -671.318 21.942
v 6.557 -671.318 24.473
v 0 -671.318 25.336
v -6.557 -671.318 24.473
v -12.668 -671.318 21.942
v -17.915 -671.318 17.915
v -21.942 -671.318 12.668
v -24.473 -671.318 6.557
v -25.336 -671.318 0
v -24.473 -671.318 -6.557
v -21.942 -671.318 -12.668
v -17.915 -671.318 -17.915
v -12.668 -671.318 -21.942
v -6.557 -671.318 -24.473
v 0 -671.318 -25.336
v 6.557 -671.318 -24.473
v 12.668 -671.318 -21.942
v 17.915 -671.318 -17.915
v 27.363 -674.31 7.332
v 28.328 -674.31 0
v 27.363 -674.31 -7.332
v 24.533 -674.31 -14.164
v 24.533 -674.31 14.164
v 20.031 -674.31 20.031
v 14.164 -674.31 24.533
v 7.332 -674.31 27.363
v 0 -674.31 28.328
v -7.332 -674.31 27.363
v -14.164 -674.31 24.533
v -20.031 -674.31 20.031
v -24.533 -674.31 14.164
v -27.363 -674.31 7.332
v -28.328 -674.31 0
v -27.363 -674.31 -7.332
v -24.533 -674.31 -14.164
v -20.031 -674.31 -20.031
v -14.164 -674.31 -24.533
v -7.332 -674.31 -27.363
v 0 -674.31 -28.328
v 7.332 -674.31 -27.363
v 14.164 -674.31 -24.533
v 20.031 -674.31 -20.031
v 27.363 -698 7.332
v 28.328 -698 0
v 27.363 -698 -7.332
v 24.533 -698 -14.164
v 24.533 -698 14.164
v 20.031 -698 20.031
v 14.164 -698 24.533
v 7.332 -698 27.363
v 0 -698 28.328
v -7.332 -698 27.363
v -14.164 -698 24.533
v -20.031 -698 20.031
v -24.533 -698 14.164
v -27.363 -698 7.332
v -28.328 -698 0
v -27.363 -698 -7.332
v -24.533 -698 -14.164
v -20.031 -698 -20.031
v -14.164 -698 -24.533
v -7.332 -698 -27.363
v 0 -698 -28.328
v 7.332 -698 -27.363
v 14.164 -698 -24.533
v 20.031 -698 -20.031
v 0 -698 38.153
v 9.875 -698 36.853
v 19.076 -698 33.041
v 26.978 -698 26.978
v 33.041 -698 19.076
v 36.853 -698 9.875
v 38.153 -698 0
v -9.875 -698 36.853
v -19.076 -698 33.041
v -26.978 -698 26.978
v -33.041 -698 19.076
v -36.853 -698 9.875
v -38.153 -698 0
v -36.853 -698 -9.875
v -33.041 -698 -19.076
v -26.978 -698 -26.978
v -19.076 -698 -33.041
v -9.875 -698 -36.853
v 0 -698 -38.153
v 9.875 -698 -36.853
v 19.076 -698 -33.041
v 26.978 -698 -26.978
v 33.041 -698 -19.076
v 36.853 -698 -9.875
v -33.041 -616.63 19.076
v -26.978 -616.63 26.978
v -19.076 -616.63 33.041
v -33.041 -616.63 -19.076
v -36.853 -616.63 -9.875
v -38.153 -616.63 0
v -36.853 -616.63 9.875
v 33.041 -616.63 -19.076
v 26.978 -616.63 -26.978
v 19.076 -616.63 -33.041
v 9.875 -616.63 -36.853
v 0 -616.63 -38.153
v 33.041 -616.63 19.076
v 36.853 -616.63 9.875
v 38.153 -616.63 0
v 36.853 -616.63 -9.875
v 26.978 -616.63 26.978
v 19.076 -616.63 33.041
v 9.875 -616.63 36.853
v 0 -616.63 38.153
v -9.875 -616.63 36.853
v -26.978 -616.63 -26.978
v -19.076 -616.63 -33.041
v -9.875 -616.63 -36.853
v 0 -616.63 50.5
v 13.07 -616.63 48.779
v 25.25 -616.63 43.734
v 35.709 -616.63 35.709
v 43.734 -616.63 25.25
v 48.779 -616.63 13.07
v 50.5 -616.63 0
v -13.07 -616.63 48.779
v -25.25 -616.63 43.734
v -35.709 -616.63 35.709
v -43.734 -616.63 25.25
v -48.779 -616.63 13.07
v -50.5 -616.63 0
v -48.779 -616.63 -13.07
v -43.734 -616.63 -25.25
v -35.709 -616.63 -35.709
v -25.25 -616.63 -43.734
v -13.07 -616.63 -48.779
v 0 -616.63 -50.5
v 13.07 -616.63 -48.779
v 25.25 -616.63 -43.734
v 35.709 -616.63 -35.709
v 43.734 -616.63 -25.25
v 48.779 -616.63 -13.07
v 48.779 -594.96 13.07
v 50.5 -594.96 0
v 48.779 -594.96 -13.07
v 43.734 -594.96 25.25
v 35.709 -594.96 35.709
v 25.25 -594.96 43.734
v 13.07 -594.96 48.779
v 0 -594.96 50.5
v -13.07 -594.96 48.779
v -25.25 -594.96 43.734
v -35.709 -594.96 35.709
v -43.734 -594.96 25.25
v -48.779 -594.96 13.07
v -50.5 -594.96 0
v -48.779 -594.96 -13.07
v -43.734 -594.96 -25.25
v -35.709 -594.96 -35.709
v -25.25 -594.96 -43.734
v -13.07 -594.96 -48.779
v 0 -594.96 -50.5
v 13.07 -594.96 -48.779
v 25.25 -594.96 -43.734
v 35.709 -594.96 -35.709
v 43.734 -594.96 -25.25
v 15.631 -496.113 109.894
v 23.21 -504.561 108.217
v 19.275 -496.113 109.314
v 24.533 -498.98 108.217
v 43.965 -496.113 101.922
v 47.835 -501.704 100.008
v 66.285 -496.113 89.036
v 68.739 -504.147 86.783
v 85.031 -496.113 71.349
v 86.196 -506.188 69.207
v 99.193 -496.113 49.817
v 99.331 -507.723 48.161
v 108.008 -496.113 25.598
v 107.485 -508.676 24.7
v 111 -496.113 0
v 110.249 -508.999 0
v 107.485 -508.676 -24.7
v 101.691 -533.125 -24.7
v 93.976 -530.317 -48.161
v 83.555 -551.068 -48.161
v 72.506 -543.801 -69.207
v 59.554 -559.237 -69.207
v 47.493 -546.452 -86.783
v 34.604 -556.048 -86.783
v 24.081 -537.822 -100.008
v 13.813 -542.251 -100.008
v 7.084 -519.775 -108.217
v 1.436 -520.771 -108.217
v 15.631 -496.113 -109.894
v -4.289 -520.437 -108.217
v -9.783 -518.793 -108.217
v -8.363 -543.542 -100.008
v -19.076 -540.335 -100.008
v -12.018 -564.269 -86.783
v -27.412 -559.66 -86.783
v -15.07 -581.578 -69.207
v -34.373 -575.799 -69.207
v -17.366 -594.601 -48.161
v -39.611 -587.941 -48.161
v 11.97 -496.113 110.353
v 8.295 -496.113 110.69
v 4.611 -496.113 110.904
v 0.923 -496.113 110.996
v -2.767 -496.113 110.965
v 20.636 -509.686 108.217
v 16.95 -514.079 108.217
v 33.05 -531.144 100.008
v 24.081 -537.822 100.008
v 34.604 -556.048 86.783
v 19.849 -562.413 86.783
v 24.89 -579.25 69.207
v 5.046 -582.749 69.207
v 28.682 -591.919 48.161
v -76.173 -496.113 80.738
v -84.444 -516.126 69.207
v -67.342 -512.073 86.783
v -61.846 -527.173 86.783
v -43.038 -517.727 100.008
v -36.894 -527.07 100.008
v -18.921 -511.99 108.217
v -14.75 -515.925 108.217
v -6.454 -496.113 110.812
v -9.783 -518.793 108.217
v -4.289 -520.437 108.217
v 1.436 -520.771 108.217
v -8.363 -543.542 100.008
v 2.8 -544.192 100.008
v -12.018 -564.269 86.783
v 4.024 -565.203 86.783
v -15.07 -581.578 69.207
v -55.5 -496.113 96.129
v -46.863 -507.22 100.008
v -31.835 -496.113 106.337
v -24.034 -501.809 108.217
v -22.073 -507.198 108.217
v -92.739 -496.113 60.995
v -97.312 -519.176 48.161
v -77.552 -535.061 69.207
v -89.37 -540.996 48.161
v -66.48 -551.896 69.207
v -76.61 -560.396 48.161
v -51.823 -565.724 69.207
v -59.72 -576.331 48.161
v -34.373 -575.799 69.207
v -39.611 -587.941 48.161
v -17.366 -594.601 48.161
v -104.306 -496.113 37.964
v -105.3 -521.069 24.7
v -96.706 -544.681 24.7
v -82.899 -565.673 24.7
v -64.623 -582.916 24.7
v -110.249 -496.113 12.886
v -108.008 -521.711 0
v -99.193 -545.93 0
v -85.031 -567.462 0
v -66.285 -585.148 0
v -111 -496.113 0
v -110.249 -496.113 -12.886
v -105.3 -521.069 -24.7
v -104.306 -496.113 -37.964
v -97.312 -519.176 -48.161
v -92.739 -496.113 -60.995
v -84.444 -516.126 -69.207
v -76.173 -496.113 -80.738
v -67.342 -512.073 -86.783
v -55.5 -496.113 -96.129
v -46.863 -507.22 -100.008
v -31.835 -496.113 -106.337
v -24.034 -501.809 -108.217
v -6.454 -496.113 -110.812
v -22.073 -507.198 -108.217
v -2.767 -496.113 -110.965
v 0.923 -496.113 -110.996
v 4.611 -496.113 -110.904
v 8.295 -496.113 -110.69
v 11.97 -496.113 -110.353
v -14.75 -515.925 -108.217
v -18.921 -511.99 -108.217
v -36.894 -527.07 -100.008
v -43.038 -517.727 -100.008
v -53.016 -540.598 -86.783
v -61.846 -527.173 -86.783
v -66.48 -551.896 -69.207
v -77.552 -535.061 -69.207
v -76.61 -560.396 -48.161
v -89.37 -540.996 -48.161
v -82.899 -565.673 -24.7
v -96.706 -544.681 -24.7
v 108.008 -496.113 -25.598
v 99.331 -507.723 -48.161
v 99.193 -496.113 -49.817
v 86.196 -506.188 -69.207
v 85.031 -496.113 -71.349
v 68.739 -504.147 -86.783
v 66.285 -496.113 -89.036
v 47.835 -501.704 -100.008
v 43.965 -496.113 -101.922
v 24.533 -498.98 -108.217
v 19.275 -496.113 -109.314
v 23.21 -504.561 -108.217
v 20.636 -509.686 -108.217
v 16.95 -514.079 -108.217
v 40.238 -522.578 -100.008
v 33.05 -531.144 -100.008
v 57.822 -534.143 -86.783
v 55.5 -592.242 0
v 54.108 -589.831 -24.7
v 50.004 -582.722 -48.161
v 28.682 -591.919 -48.161
v 5.046 -582.749 -69.207
v 24.89 -579.25 -69.207
v -59.72 -576.331 -48.161
v -51.823 -565.724 -69.207
v -41.328 -551.626 -86.783
v -28.76 -534.744 -100.008
v -64.623 -582.916 -24.7
v 50.004 -582.722 48.161
v 43.392 -571.269 69.207
v 59.554 -559.237 69.207
v 47.493 -546.452 86.783
v 57.822 -534.143 86.783
v 40.238 -522.578 100.008
v 45.257 -512.585 100.008
v 54.108 -589.831 24.7
v 68.629 -568.856 48.161
v 74.263 -574.827 24.7
v 83.555 -551.068 48.161
v 90.414 -555.579 24.7
v 93.976 -530.317 48.161
v 101.691 -533.125 24.7
v 76.173 -576.851 0
v 92.739 -557.108 0
v 104.306 -534.077 0
v 7.084 -519.775 108.217
v 13.813 -542.251 100.008
v 12.35 -517.503 108.217
v 12.35 -517.503 -108.217
v 65.034 -519.783 86.783
v 81.55 -525.794 69.207
v 81.55 -525.794 -69.207
v 65.034 -519.783 -86.783
v 45.257 -512.585 -100.008
v 43.392 -571.269 -69.207
v 19.849 -562.413 -86.783
v 4.024 -565.203 -86.783
v 68.629 -568.856 -48.161
v 74.263 -574.827 -24.7
v 90.414 -555.579 -24.7
v 2.8 -544.192 -100.008
v -28.76 -534.744 100.008
v -19.076 -540.335 100.008
v -53.016 -540.598 86.783
v -41.328 -551.626 86.783
v -27.412 -559.66 86.783
v 72.506 -543.801 69.207
v 19.275 -191 109.314
v 43.965 -191 101.922
v 66.285 -191 89.036
v 85.031 -191 71.349
v 99.193 -191 49.817
v 108.008 -191 25.598
v 111 -191 0
v 108.008 -191 -25.598
v 99.193 -191 -49.817
v 85.031 -191 -71.349
v 66.285 -191 -89.036
v 43.965 -191 -101.922
v 19.275 -191 -109.314
v 15.631 -191 -109.894
v 15.631 -191 109.894
v 11.97 -191 110.353
v 8.295 -191 110.69
v 4.611 -191 110.904
v 0.923 -191 110.996
v -2.767 -191 110.965
v -6.454 -191 110.812
v -31.835 -191 106.337
v -55.5 -191 96.129
v -76.173 -191 80.738
v -92.739 -191 60.995
v -104.306 -191 37.964
v -110.249 -191 12.886
v -111 -191 0
v -110.249 -191 -12.886
v -104.306 -191 -37.964
v -92.739 -191 -60.995
v -76.173 -191 -80.738
v -55.5 -191 -96.129
v -31.835 -191 -106.337
v -6.454 -191 -110.812
v -2.767 -191 -110.965
v 0.923 -191 -110.996
v 4.611 -191 -110.904
v 8.295 -191 -110.69
v 11.97 -191 -110.353
v 62.732 -100.982 -16.809
v 64.945 -100.982 0
v 76.173 -110.262 0
v 62.732 -100.982 16.809
v 74.263 -112.286 24.7
v 56.244 -100.982 32.472
v 68.629 -118.257 48.161
v 50.004 -104.391 48.161
v 43.392 -115.843 69.207
v 32.472 -100.982 56.244
v 24.89 -107.863 69.207
v 16.809 -100.982 62.732
v 5.046 -104.364 69.207
v 0 -100.982 64.945
v -15.07 -105.535 69.207
v -16.809 -100.982 62.732
v -34.373 -111.314 69.207
v -32.472 -100.982 56.244
v -45.923 -100.982 45.923
v 45.923 -100.982 45.923
v -64.945 -100.982 0
v -66.285 -101.964 0
v -62.732 -100.982 16.809
v -64.623 -104.197 24.7
v -56.244 -100.982 32.472
v -59.72 -110.782 48.161
v -51.823 -121.389 69.207
v -41.328 -135.487 86.783
v -27.412 -127.453 86.783
v -28.76 -152.369 100.008
v -19.076 -146.778 100.008
v -14.75 -171.188 108.217
v -9.783 -168.32 108.217
v -4.289 -166.675 108.217
v 1.436 -166.342 108.217
v 2.8 -142.92 100.008
v 13.813 -144.862 100.008
v 19.849 -124.7 86.783
v 34.604 -131.065 86.783
v 59.554 -127.876 69.207
v 83.555 -136.045 48.161
v 90.414 -131.534 24.7
v 101.691 -153.988 24.7
v 104.306 -153.036 0
v 110.249 -178.114 0
v 107.485 -178.437 -24.7
v -62.732 -100.982 -16.809
v -64.623 -104.197 -24.7
v -85.031 -119.651 0
v -82.899 -121.439 -24.7
v -99.193 -141.183 0
v -96.706 -142.432 -24.7
v -108.008 -165.402 0
v -105.3 -166.043 -24.7
v -56.244 -100.982 -32.472
v -59.72 -110.782 -48.161
v -76.61 -126.716 -48.161
v -89.37 -146.117 -48.161
v -97.312 -167.937 -48.161
v -45.923 -100.982 -45.923
v -51.823 -121.389 -69.207
v -66.48 -135.217 -69.207
v -77.552 -152.052 -69.207
v -84.444 -170.986 -69.207
v -34.373 -111.314 -69.207
v -32.472 -100.982 -56.244
v -16.809 -100.982 -62.732
v -15.07 -105.535 -69.207
v 0 -100.982 -64.945
v 5.046 -104.364 -69.207
v 16.809 -100.982 -62.732
v 24.89 -107.863 -69.207
v 32.472 -100.982 -56.244
v 43.392 -115.843 -69.207
v 50.004 -104.391 -48.161
v 68.629 -118.257 -48.161
v 56.244 -100.982 -32.472
v 74.263 -112.286 -24.7
v 45.923 -100.982 -45.923
v 99.331 -179.39 -48.161
v 86.196 -180.925 -69.207
v 68.739 -182.966 -86.783
v 47.835 -185.409 -100.008
v 24.533 -188.133 -108.217
v 23.21 -182.552 -108.217
v -12.018 -122.844 -86.783
v 4.024 -121.91 -86.783
v 2.8 -142.92 -100.008
v 13.813 -144.862 -100.008
v 7.084 -167.338 -108.217
v 12.35 -169.609 -108.217
v 16.95 -173.034 -108.217
v 20.636 -177.427 -108.217
v 40.238 -164.535 -100.008
v 45.257 -174.528 -100.008
v 57.822 -152.97 -86.783
v 65.034 -167.33 -86.783
v 72.506 -143.312 -69.207
v 81.55 -161.318 -69.207
v 83.555 -136.045 -48.161
v 93.976 -156.795 -48.161
v 90.414 -131.534 -24.7
v 101.691 -153.988 -24.7
v 92.739 -130.005 0
v -67.342 -175.04 -86.783
v -61.846 -159.94 -86.783
v -43.038 -169.385 -100.008
v -36.894 -160.043 -100.008
v -18.921 -175.123 -108.217
v -14.75 -171.188 -108.217
v -9.783 -168.32 -108.217
v -4.289 -166.675 -108.217
v 1.436 -166.342 -108.217
v -8.363 -143.571 -100.008
v -46.863 -179.893 -100.008
v -24.034 -185.304 -108.217
v -22.073 -179.915 -108.217
v -105.3 -166.043 24.7
v -97.312 -167.937 48.161
v -84.444 -170.986 69.207
v -67.342 -175.04 86.783
v -46.863 -179.893 100.008
v -24.034 -185.304 108.217
v -22.073 -179.915 108.217
v -18.921 -175.123 108.217
v -36.894 -160.043 100.008
v 107.485 -178.437 24.7
v 99.331 -179.39 48.161
v 86.196 -180.925 69.207
v 68.739 -182.966 86.783
v 47.835 -185.409 100.008
v 24.533 -188.133 108.217
v 23.21 -182.552 108.217
v 20.636 -177.427 108.217
v 16.95 -173.034 108.217
v 40.238 -164.535 100.008
v 33.05 -155.969 100.008
v 57.822 -152.97 86.783
v 47.493 -140.66 86.783
v 72.506 -143.312 69.207
v 12.35 -169.609 108.217
v 24.081 -149.291 100.008
v 7.084 -167.338 108.217
v 59.554 -127.876 -69.207
v 47.493 -140.66 -86.783
v 33.05 -155.969 -100.008
v 34.604 -131.065 -86.783
v 19.849 -124.7 -86.783
v 24.081 -149.291 -100.008
v 4.024 -121.91 86.783
v -8.363 -143.571 100.008
v -12.018 -122.844 86.783
v -28.76 -152.369 -100.008
v -19.076 -146.778 -100.008
v -53.016 -146.514 -86.783
v -41.328 -135.487 -86.783
v -27.412 -127.453 -86.783
v -82.899 -121.439 24.7
v -96.706 -142.432 24.7
v -76.61 -126.716 48.161
v -89.37 -146.117 48.161
v -66.48 -135.217 69.207
v -77.552 -152.052 69.207
v -53.016 -146.514 86.783
v -61.846 -159.94 86.783
v 93.976 -156.795 48.161
v 81.55 -161.318 69.207
v 65.034 -167.33 86.783
v 45.257 -174.528 100.008
v -43.038 -169.385 100.008
v 40.814 -80 40.814
v 49.987 -80 28.86
v 55.753 -80 14.939
v 57.72 -80 0
v 55.753 -80 -14.939
v 49.987 -80 -28.86
v 40.814 -80 -40.814
v 28.86 -80 -49.987
v 28.86 -80 49.987
v 14.939 -80 55.753
v 0 -80 57.72
v -14.939 -80 55.753
v -28.86 -80 49.987
v -40.814 -80 40.814
v -49.987 -80 28.86
v -55.753 -80 14.939
v -57.72 -80 0
v -55.753 -80 -14.939
v -49.987 -80 -28.86
v -40.814 -80 -40.814
v -28.86 -80 -49.987
v -14.939 -80 -55.753
v 0 -80 -57.72
v 14.939 -80 -55.753
v 9.78 -80 2.621
v 10.125 -80 0
v 9.78 -80 -2.621
v 8.769 -80 -5.062
v 7.159 -80 -7.159
v 5.062 -80 -8.769
v 2.621 -80 -9.78
v 0 -80 -10.125
v 8.769 -80 5.062
v 7.159 -80 7.159
v 5.062 -80 8.769
v 2.621 -80 9.78
v 0 -80 10.125
v -2.621 -80 9.78
v -5.062 -80 8.769
v -7.159 -80 7.159
v -8.769 -80 5.062
v -9.78 -80 2.621
v -10.125 -80 0
v -9.78 -80 -2.621
v -8.769 -80 -5.062
v -7.159 -80 -7.159
v -5.062 -80 -8.769
v -2.621 -80 -9.78
v 9.78 -78.2 2.621
v 10.125 -78.2 0
v 9.78 -78.2 -2.621
v 8.769 -78.2 -5.062
v 8.769 -78.2 5.062
v 7.159 -78.2 7.159
v 5.062 -78.2 8.769
v 2.621 -78.2 9.78
v 0 -78.2 10.125
v -2.621 -78.2 9.78
v -5.062 -78.2 8.769
v -7.159 -78.2 7.159
v -8.769 -78.2 5.062
v -9.78 -78.2 2.621
v -10.125 -78.2 0
v -9.78 -78.2 -2.621
v -8.769 -78.2 -5.062
v -7.159 -78.2 -7.159
v -5.062 -78.2 -8.769
v -2.621 -78.2 -9.78
v 0 -78.2 -10.125
v 2.621 -78.2 -9.78
v 5.062 -78.2 -8.769
v 7.159 -78.2 -7.159
v 0 -78.2 12.375
v 3.203 -78.2 11.953
v 6.187 -78.2 10.717
v 8.75 -78.2 8.75
v 10.717 -78.2 6.187
v 11.953 -78.2 3.203
v 12.375 -78.2 0
v -3.203 -78.2 11.953
v -6.187 -78.2 10.717
v -8.75 -78.2 8.75
v -10.717 -78.2 6.187
v -11.953 -78.2 3.203
v -12.375 -78.2 0
v -11.953 -78.2 -3.203
v -10.717 -78.2 -6.187
v -8.75 -78.2 -8.75
v -6.187 -78.2 -10.717
v -3.203 -78.2 -11.953
v 0 -78.2 -12.375
v 3.203 -78.2 -11.953
v 6.187 -78.2 -10.717
v 8.75 -78.2 -8.75
v 10.717 -78.2 -6.187
v 11.953 -78.2 -3.203
v 11.953 -2.25 3.203
v 12.375 -2.25 0
v 11.953 -2.25 -3.203
v 10.717 -2.25 -6.187
v 10.717 -2.25 6.188
v 8.75 -2.25 8.75
v 6.187 -2.25 10.717
v 3.203 -2.25 11.953
v 0 -2.25 12.375
v -3.203 -2.25 11.953
v -6.188 -2.25 10.717
v -8.75 -2.25 8.75
v -10.717 -2.25 6.187
v -11.953 -2.25 3.203
v -12.375 -2.25 0
v -11.953 -2.25 -3.203
v -10.717 -2.25 -6.188
v -8.75 -2.25 -8.75
v -6.187 -2.25 -10.717
v -3.203 -2.25 -11.953
v 0 -2.25 -12.375
v 3.203 -2.25 -11.953
v 6.188 -2.25 -10.717
v 8.75 -2.25 -8.75
v 9.78 0 2.621
v 10.125 0 0
v 9.78 0 -2.621
v 8.769 0 -5.062
v 8.769 0 5.063
v 7.159 0 7.159
v 5.062 0 8.769
v 2.621 0 9.78
v 0 0 10.125
v -2.621 0 9.78
v -5.063 0 8.769
v -7.159 0 7.159
v -8.769 0 5.062
v -9.78 0 2.621
v -10.125 0 0
v -9.78 0 -2.621
v -8.769 0 -5.063
v -7.159 0 -7.159
v -5.062 0 -8.769
v -2.621 0 -9.78
v 0 0 -10.125
v 2.621 0 -9.78
v 5.062 0 -8.769
v 7.159 0 -7.159
vn 0 -1 0
vn 0 1 0
vn -1 0 0
vn 1 0 0
vn 0.866 0 0.5
vn 0.966 0 0.259
vn 0.966 0 -0.259
vn 0.866 0 -0.5
vn 0.707 0 0.707
vn 0.5 0 0.866
vn 0.259 0 0.966
vn 0 0 1
vn -0.259 0 0.966
vn -0.5 0 0.866
vn -0.707 0 0.707
vn -0.866 0 0.5
vn -0.966 0 0.259
vn -0.966 0 -0.259
vn -0.866 0 -0.5
vn -0.707 0 -0.707
vn -0.5 0 -0.866
vn -0.259 0 -0.966
vn 0 0 -1
vn 0.259 0 -0.966
vn 0.5 0 -0.866
vn 0.707 0 -0.707
vn -0.612 -0.707 -0.354
vn -0.683 -0.707 -0.183
vn -0.707 -0.707 0
vn -0.683 -0.707 0.183
vn -0.612 -0.707 0.354
vn -0.5 -0.707 -0.5
vn -0.354 -0.707 -0.612
vn -0.183 -0.707 -0.683
vn 0 -0.707 -0.707
vn 0.183 -0.707 -0.683
vn 0.354 -0.707 -0.612
vn 0.5 -0.707 -0.5
vn 0.612 -0.707 -0.354
vn 0.683 -0.707 -0.183
vn 0.707 -0.707 0
vn 0.683 -0.707 0.183
vn 0.612 -0.707 0.354
vn 0.5 -0.707 0.5
vn 0.354 -0.707 0.612
vn 0.183 -0.707 0.683
vn 0 -0.707 0.707
vn -0.183 -0.707 0.683
vn -0.354 -0.707 0.612
vn -0.5 -0.707 0.5
vn -0.979 0 0.203
vn -0.917 0 0.398
vn -0.979 0 -0.203
vn -0.917 0 -0.398
vn 0.979 0 -0.203
vn 0.917 0 -0.398
vn 0.979 0 0.203
vn 0.917 0 0.398
vn 0.141 0 0.99
vn 0.209 -0.076 0.975
vn 0.174 0 0.985
vn 0.221 -0.026 0.975
vn 0.396 0 0.918
vn 0.431 -0.05 0.901
vn 0.597 0 0.802
vn 0.619 -0.072 0.782
vn 0.766 0 0.643
vn 0.777 -0.091 0.623
vn 0.894 0 0.449
vn 0.895 -0.105 0.434
vn 0.973 0 0.231
vn 0.968 -0.113 0.223
vn 0.993 -0.116 0
vn 0.968 -0.113 -0.223
vn 0.916 -0.333 -0.223
vn 0.847 -0.308 -0.434
vn 0.753 -0.495 -0.434
vn 0.653 -0.43 -0.623
vn 0.537 -0.569 -0.623
vn 0.428 -0.454 -0.782
vn 0.312 -0.54 -0.782
vn 0.217 -0.376 -0.901
vn 0.124 -0.416 -0.901
vn 0.064 -0.213 -0.975
vn 0.013 -0.222 -0.975
vn 0.141 0 -0.99
vn -0.039 -0.219 -0.975
vn -0.088 -0.204 -0.975
vn -0.075 -0.427 -0.901
vn -0.172 -0.398 -0.901
vn -0.108 -0.614 -0.782
vn -0.247 -0.572 -0.782
vn -0.136 -0.77 -0.623
vn -0.31 -0.718 -0.623
vn -0.156 -0.887 -0.434
vn -0.357 -0.827 -0.434
vn -0.227 -0.891 -0.394
vn -0.322 -0.891 -0.322
vn 0.108 0 0.994
vn 0.075 0 0.997
vn 0.042 0 0.999
vn 0.008 0 1
vn -0.025 0 1
vn 0.186 -0.122 0.975
vn 0.153 -0.162 0.975
vn 0.298 -0.316 0.901
vn 0.217 -0.376 0.901
vn 0.312 -0.54 0.782
vn 0.179 -0.597 0.782
vn 0.224 -0.749 0.623
vn 0.045 -0.781 0.623
vn 0.258 -0.863 0.434
vn 0.118 -0.891 0.439
vn 0.227 -0.891 0.394
vn -0.686 0 0.727
vn -0.761 -0.18 0.623
vn -0.607 -0.144 0.782
vn -0.557 -0.28 0.782
vn -0.388 -0.195 0.901
vn -0.332 -0.279 0.901
vn -0.17 -0.143 0.975
vn -0.133 -0.178 0.975
vn -0.058 0 0.998
vn -0.088 -0.204 0.975
vn -0.039 -0.219 0.975
vn 0.013 -0.222 0.975
vn -0.075 -0.427 0.901
vn 0.025 -0.433 0.901
vn -0.108 -0.614 0.782
vn 0.036 -0.622 0.782
vn -0.136 -0.77 0.623
vn 0 -0.891 0.455
vn -0.422 -0.1 0.901
vn -0.287 0 0.958
vn -0.217 -0.051 0.975
vn -0.199 -0.1 0.975
vn -0.835 0 0.55
vn -0.877 -0.208 0.434
vn -0.699 -0.351 0.623
vn -0.805 -0.404 0.434
vn -0.599 -0.503 0.623
vn -0.69 -0.579 0.434
vn -0.467 -0.627 0.623
vn -0.538 -0.723 0.434
vn -0.31 -0.718 0.623
vn -0.357 -0.827 0.434
vn -0.156 -0.887 0.434
vn -0.118 -0.891 0.439
vn -0.227 -0.891 0.394
vn -0.94 0 0.342
vn -0.949 -0.225 0.223
vn -0.871 -0.438 0.223
vn -0.747 -0.627 0.223
vn -0.582 -0.782 0.223
vn -0.394 -0.891 0.227
vn -0.439 -0.891 0.118
vn -0.993 0 0.116
vn -0.973 -0.231 0
vn -0.894 -0.449 0
vn -0.766 -0.643 0
vn -0.597 -0.802 0
vn -0.455 -0.891 0
vn -0.993 0 -0.116
vn -0.949 -0.225 -0.223
vn -0.94 0 -0.342
vn -0.877 -0.208 -0.434
vn -0.835 0 -0.55
vn -0.761 -0.18 -0.623
vn -0.686 0 -0.727
vn -0.607 -0.144 -0.782
vn -0.422 -0.1 -0.901
vn -0.287 0 -0.958
vn -0.217 -0.051 -0.975
vn -0.058 0 -0.998
vn -0.199 -0.1 -0.975
vn -0.025 0 -1
vn 0.008 0 -1
vn 0.042 0 -0.999
vn 0.075 0 -0.997
vn 0.108 0 -0.994
vn -0.133 -0.178 -0.975
vn -0.17 -0.143 -0.975
vn -0.332 -0.279 -0.901
vn -0.388 -0.195 -0.901
vn -0.478 -0.401 -0.782
vn -0.557 -0.28 -0.782
vn -0.599 -0.503 -0.623
vn -0.699 -0.351 -0.623
vn -0.69 -0.579 -0.434
vn -0.805 -0.404 -0.434
vn -0.747 -0.627 -0.223
vn -0.871 -0.438 -0.223
vn 0.973 0 -0.231
vn 0.895 -0.105 -0.434
vn 0.894 0 -0.449
vn 0.777 -0.091 -0.623
vn 0.766 0 -0.643
vn 0.619 -0.072 -0.782
vn 0.597 0 -0.802
vn 0.431 -0.05 -0.901
vn 0.396 0 -0.918
vn 0.221 -0.026 -0.975
vn 0.174 0 -0.985
vn 0.209 -0.076 -0.975
vn 0.186 -0.122 -0.975
vn 0.153 -0.162 -0.975
vn 0.363 -0.238 -0.901
vn 0.298 -0.316 -0.901
vn 0.521 -0.343 -0.782
vn 0.439 -0.891 0.118
vn 0.455 -0.891 0
vn 0.5 -0.866 0
vn 0.439 -0.891 -0.118
vn 0.487 -0.844 -0.223
vn 0.394 -0.891 -0.227
vn 0.45 -0.78 -0.434
vn 0.322 -0.891 -0.322
vn 0.258 -0.863 -0.434
vn 0.227 -0.891 -0.394
vn 0.118 -0.891 -0.439
vn -0.118 -0.891 -0.439
vn 0 -0.891 -0.455
vn 0.045 -0.781 -0.623
vn 0.224 -0.749 -0.623
vn -0.394 -0.891 -0.227
vn -0.538 -0.723 -0.434
vn -0.467 -0.627 -0.623
vn -0.372 -0.5 -0.782
vn -0.259 -0.348 -0.901
vn -0.582 -0.782 -0.223
vn -0.439 -0.891 -0.118
vn -0.322 -0.891 0.322
vn 0.322 -0.891 0.322
vn 0.45 -0.78 0.434
vn 0.391 -0.677 0.623
vn 0.537 -0.569 0.623
vn 0.428 -0.454 0.782
vn 0.521 -0.343 0.782
vn 0.363 -0.238 0.901
vn 0.408 -0.148 0.901
vn 0.394 -0.891 0.227
vn 0.487 -0.844 0.223
vn 0.618 -0.655 0.434
vn 0.669 -0.709 0.223
vn 0.753 -0.495 0.434
vn 0.815 -0.536 0.223
vn 0.847 -0.308 0.434
vn 0.916 -0.333 0.223
vn 0.686 -0.727 0
vn 0.835 -0.55 0
vn 0.94 -0.342 0
vn 0.064 -0.213 0.975
vn 0.124 -0.416 0.901
vn 0.111 -0.193 0.975
vn 0.111 -0.193 -0.975
vn 0.586 -0.213 0.782
vn 0.735 -0.267 0.623
vn 0.735 -0.267 -0.623
vn 0.586 -0.213 -0.782
vn 0.408 -0.148 -0.901
vn 0.391 -0.677 -0.623
vn 0.179 -0.597 -0.782
vn 0.036 -0.622 -0.782
vn 0.618 -0.655 -0.434
vn 0.669 -0.709 -0.223
vn 0.815 -0.536 -0.223
vn 0.025 -0.433 -0.901
vn -0.259 -0.348 0.901
vn -0.172 -0.398 0.901
vn -0.478 -0.401 0.782
vn -0.372 -0.5 0.782
vn -0.247 -0.572 0.782
vn 0.653 -0.43 0.623
vn 0.565 0.811 -0.151
vn 0.585 0.811 0
vn 0.686 0.727 0
vn 0.565 0.811 0.151
vn 0.669 0.709 0.223
vn 0.507 0.811 0.293
vn 0.618 0.655 0.434
vn 0.45 0.78 0.434
vn 0.391 0.677 0.623
vn 0.293 0.811 0.507
vn 0.224 0.749 0.623
vn 0.151 0.811 0.565
vn 0.045 0.781 0.623
vn 0 0.811 0.585
vn -0.136 0.77 0.623
vn -0.151 0.811 0.565
vn -0.31 0.718 0.623
vn -0.293 0.811 0.507
vn -0.414 0.811 0.414
vn 0.414 0.811 0.414
vn -0.585 0.811 0
vn -0.597 0.802 0
vn -0.565 0.811 0.151
vn -0.582 0.782 0.223
vn -0.507 0.811 0.293
vn -0.538 0.723 0.434
vn -0.467 0.627 0.623
vn -0.372 0.5 0.782
vn -0.247 0.572 0.782
vn -0.259 0.348 0.901
vn -0.172 0.398 0.901
vn -0.133 0.178 0.975
vn -0.088 0.204 0.975
vn -0.039 0.219 0.975
vn 0.013 0.222 0.975
vn 0.025 0.433 0.901
vn 0.124 0.416 0.901
vn 0.179 0.597 0.782
vn 0.312 0.54 0.782
vn 0.537 0.569 0.623
vn 0.753 0.495 0.434
vn 0.815 0.536 0.223
vn 0.916 0.333 0.223
vn 0.94 0.342 0
vn 0.993 0.116 0
vn 0.968 0.113 -0.223
vn -0.565 0.811 -0.151
vn -0.582 0.782 -0.223
vn -0.766 0.643 0
vn -0.747 0.627 -0.223
vn -0.894 0.449 0
vn -0.871 0.438 -0.223
vn -0.973 0.231 0
vn -0.949 0.225 -0.223
vn -0.507 0.811 -0.293
vn -0.538 0.723 -0.434
vn -0.69 0.579 -0.434
vn -0.805 0.404 -0.434
vn -0.877 0.208 -0.434
vn -0.414 0.811 -0.414
vn -0.467 0.627 -0.623
vn -0.599 0.503 -0.623
vn -0.699 0.351 -0.623
vn -0.761 0.18 -0.623
vn -0.31 0.718 -0.623
vn -0.293 0.811 -0.507
vn -0.151 0.811 -0.565
vn -0.136 0.77 -0.623
vn 0 0.811 -0.585
vn 0.045 0.781 -0.623
vn 0.151 0.811 -0.565
vn 0.224 0.749 -0.623
vn 0.293 0.811 -0.507
vn 0.391 0.677 -0.623
vn 0.45 0.78 -0.434
vn 0.618 0.655 -0.434
vn 0.507 0.811 -0.293
vn 0.669 0.709 -0.223
vn 0.414 0.811 -0.414
vn 0.895 0.105 -0.434
vn 0.777 0.091 -0.623
vn 0.619 0.072 -0.782
vn 0.431 0.05 -0.901
vn 0.221 0.026 -0.975
vn 0.209 0.076 -0.975
vn -0.108 0.614 -0.782
vn 0.036 0.622 -0.782
vn 0.025 0.433 -0.901
vn 0.124 0.416 -0.901
vn 0.064 0.213 -0.975
vn 0.111 0.193 -0.975
vn 0.153 0.162 -0.975
vn 0.186 0.122 -0.975
vn 0.363 0.238 -0.901
vn 0.408 0.148 -0.901
vn 0.521 0.343 -0.782
vn 0.586 0.213 -0.782
vn 0.653 0.43 -0.623
vn 0.735 0.267 -0.623
vn 0.753 0.495 -0.434
vn 0.847 0.308 -0.434
vn 0.815 0.536 -0.223
vn 0.916 0.333 -0.223
vn 0.835 0.55 0
vn -0.607 0.144 -0.782
vn -0.557 0.28 -0.782
vn -0.388 0.195 -0.901
vn -0.332 0.279 -0.901
vn -0.17 0.143 -0.975
vn -0.133 0.178 -0.975
vn -0.088 0.204 -0.975
vn -0.039 0.219 -0.975
vn 0.013 0.222 -0.975
vn -0.075 0.427 -0.901
vn -0.422 0.1 -0.901
vn -0.217 0.051 -0.975
vn -0.199 0.1 -0.975
vn -0.949 0.225 0.223
vn -0.877 0.208 0.434
vn -0.761 0.18 0.623
vn -0.607 0.144 0.782
vn -0.422 0.1 0.901
vn -0.217 0.051 0.975
vn -0.199 0.1 0.975
vn -0.17 0.143 0.975
vn -0.332 0.279 0.901
vn 0.968 0.113 0.223
vn 0.895 0.105 0.434
vn 0.777 0.091 0.623
vn 0.619 0.072 0.782
vn 0.431 0.05 0.901
vn 0.221 0.026 0.975
vn 0.209 0.076 0.975
vn 0.186 0.122 0.975
vn 0.153 0.162 0.975
vn 0.363 0.238 0.901
vn 0.298 0.316 0.901
vn 0.521 0.343 0.782
vn 0.428 0.454 0.782
vn 0.653 0.43 0.623
vn 0.111 0.193 0.975
vn 0.217 0.376 0.901
vn 0.064 0.213 0.975
vn 0.537 0.569 -0.623
vn 0.428 0.454 -0.782
vn 0.298 0.316 -0.901
vn 0.312 0.54 -0.782
vn 0.179 0.597 -0.782
vn 0.217 0.376 -0.901
vn 0.036 0.622 0.782
vn -0.075 0.427 0.901
vn -0.108 0.614 0.782
vn -0.259 0.348 -0.901
vn -0.172 0.398 -0.901
vn -0.478 0.401 -0.782
vn -0.372 0.5 -0.782
vn -0.247 0.572 -0.782
vn -0.747 0.627 0.223
vn -0.871 0.438 0.223
vn -0.69 0.579 0.434
vn -0.805 0.404 0.434
vn -0.599 0.503 0.623
vn -0.699 0.351 0.623
vn -0.478 0.401 0.782
vn -0.557 0.28 0.782
vn 0.847 0.308 0.434
vn 0.735 0.267 0.623
vn 0.586 0.213 0.782
vn 0.408 0.148 0.901
vn -0.388 0.195 0.901
vn 0.473 0.326 0.819
vn 0.669 0.326 0.669
vn 0.819 0.326 0.473
vn 0.913 0.326 0.245
vn 0.946 0.326 0
vn 0.913 0.326 -0.245
vn 0.819 0.326 -0.473
vn 0.669 0.326 -0.669
vn 0.473 0.326 -0.819
vn 0.245 0.326 0.913
vn 0 0.326 0.946
vn -0.245 0.326 0.913
vn -0.473 0.326 0.819
vn -0.669 0.326 0.669
vn -0.819 0.326 0.473
vn -0.913 0.326 0.245
vn -0.946 0.326 0
vn -0.913 0.326 -0.245
vn -0.819 0.326 -0.473
vn -0.669 0.326 -0.669
vn -0.473 0.326 -0.819
vn -0.245 0.326 -0.913
vn 0 0.326 -0.946
vn 0.245 0.326 -0.913
vn 0.612 0.707 0.354
vn 0.683 0.707 0.183
vn 0.707 0.707 0
vn 0.683 0.707 -0.183
vn 0.612 0.707 -0.354
vn 0.5 0.707 0.5
vn 0.354 0.707 0.612
vn 0.183 0.707 0.683
vn 0 0.707 0.707
vn -0.183 0.707 0.683
vn -0.354 0.707 0.612
vn -0.5 0.707 0.5
vn -0.612 0.707 0.354
vn -0.683 0.707 0.183
vn -0.707 0.707 0
vn -0.683 0.707 -0.183
vn -0.612 0.707 -0.354
vn -0.5 0.707 -0.5
vn -0.354 0.707 -0.612
vn -0.183 0.707 -0.683
vn 0 0.707 -0.707
vn 0.183 0.707 -0.683
vn 0.354 0.707 -0.612
vn 0.5 0.707 -0.5
g ehv12-330-90_1
usemtl ehv12-330-90_color_1
f 1//1 2//1 3//1
f 3//1 2//1 4//1
f 3//1 4//1 5//1
f 6//2 7//2 8//2
f 8//2 7//2 9//2
f 8//2 9//2 10//2
f 7//3 6//3 1//3
f 1//3 6//3 2//3
f 11//1 12//1 13//1
f 13//1 12//1 14//1
f 13//1 14//1 15//1
f 16//2 17//2 18//2
f 18//2 17//2 19//2
f 18//2 19//2 20//2
f 17//4 16//4 11//4
f 11//4 16//4 12//4
f 21//1 22//1 23//1
f 23//1 22//1 24//1
f 23//1 24//1 25//1
f 25//1 24//1 26//1
f 25//1 26//1 27//1
f 27//1 26//1 28//1
f 27//1 28//1 29//1
f 29//1 28//1 30//1
f 29//1 30//1 31//1
f 31//1 30//1 32//1
f 31//1 32//1 33//1
f 33//1 32//1 34//1
f 33//1 34//1 35//1
f 35//1 34//1 36//1
f 35//1 36//1 37//1
f 37//1 36//1 38//1
f 37//1 38//1 39//1
f 39//1 38//1 40//1
f 39//1 40//1 41//1
f 41//1 40//1 42//1
f 41//1 42//1 43//1
f 21//1 44//1 22//1
f 27//5 29//6 45//6
f 45//6 29//6 31//4
f 45//6 31//4 46//4
f 46//4 31//4 33//7
f 46//4 33//7 47//7
f 47//7 33//7 48//8
f 45//6 49//5 27//5
f 27//5 49//5 50//9
f 27//5 50//9 25//9
f 25//9 50//9 51//10
f 25//9 51//10 23//10
f 23//10 51//10 52//11
f 23//10 52//11 21//11
f 21//11 52//11 44//12
f 52//11 53//12 44//12
f 44//12 53//12 54//13
f 44//12 54//13 22//13
f 22//13 54//13 55//14
f 22//13 55//14 24//14
f 24//14 55//14 26//15
f 55//14 56//15 26//15
f 26//15 56//15 57//16
f 26//15 57//16 28//16
f 28//16 57//16 58//17
f 28//16 58//17 30//17
f 30//17 58//17 32//3
f 58//17 59//3 32//3
f 32//3 59//3 34//18
f 59//3 60//18 34//18
f 34//18 60//18 61//19
f 34//18 61//19 36//19
f 36//19 61//19 62//20
f 36//19 62//20 38//20
f 38//20 62//20 40//21
f 62//20 63//21 40//21
f 40//21 63//21 64//22
f 40//21 64//22 42//22
f 42//22 64//22 65//23
f 42//22 65//23 43//23
f 43//23 65//23 41//24
f 65//23 66//24 41//24
f 41//24 66//24 67//25
f 41//24 67//25 39//25
f 39//25 67//25 68//26
f 39//25 68//26 37//26
f 37//26 68//26 48//8
f 37//26 48//8 35//8
f 35//8 48//8 33//7
f 69//1 53//1 70//1
f 70//1 53//1 52//1
f 70//1 52//1 71//1
f 71//1 52//1 51//1
f 71//1 51//1 72//1
f 72//1 51//1 50//1
f 72//1 50//1 73//1
f 73//1 50//1 49//1
f 73//1 49//1 74//1
f 74//1 49//1 45//1
f 74//1 45//1 75//1
f 75//1 45//1 46//1
f 75//1 46//1 47//1
f 69//1 76//1 53//1
f 53//1 76//1 54//1
f 76//1 77//1 54//1
f 54//1 77//1 55//1
f 77//1 78//1 55//1
f 55//1 78//1 56//1
f 78//1 79//1 56//1
f 56//1 79//1 57//1
f 79//1 80//1 57//1
f 57//1 80//1 58//1
f 58//1 80//1 59//1
f 59//1 80//1 81//1
f 59//1 81//1 60//1
f 60//1 81//1 82//1
f 60//1 82//1 61//1
f 61//1 82//1 83//1
f 61//1 83//1 62//1
f 62//1 83//1 84//1
f 62//1 84//1 63//1
f 63//1 84//1 85//1
f 63//1 85//1 64//1
f 64//1 85//1 86//1
f 64//1 86//1 65//1
f 65//1 86//1 87//1
f 65//1 87//1 88//1
f 65//1 88//1 66//1
f 66//1 88//1 89//1
f 66//1 89//1 67//1
f 67//1 89//1 90//1
f 67//1 90//1 68//1
f 68//1 90//1 91//1
f 68//1 91//1 48//1
f 48//1 91//1 92//1
f 48//1 92//1 47//1
f 47//1 92//1 75//1
f 73//5 74//6 93//6
f 93//6 74//6 75//4
f 93//6 75//4 94//4
f 94//4 75//4 92//7
f 94//4 92//7 95//7
f 95//7 92//7 96//8
f 93//6 97//5 73//5
f 73//5 97//5 98//9
f 73//5 98//9 72//9
f 72//9 98//9 99//10
f 72//9 99//10 71//10
f 71//10 99//10 100//11
f 71//10 100//11 70//11
f 70//11 100//11 69//12
f 100//11 101//12 69//12
f 69//12 101//12 102//13
f 69//12 102//13 76//13
f 76//13 102//13 103//14
f 76//13 103//14 77//14
f 77//14 103//14 78//15
f 103//14 104//15 78//15
f 78//15 104//15 105//16
f 78//15 105//16 79//16
f 79//16 105//16 106//17
f 79//16 106//17 80//17
f 80//17 106//17 81//3
f 106//17 107//3 81//3
f 81//3 107//3 82//18
f 107//3 108//18 82//18
f 82//18 108//18 109//19
f 82//18 109//19 83//19
f 83//19 109//19 110//20
f 83//19 110//20 84//20
f 84//20 110//20 85//21
f 110//20 111//21 85//21
f 85//21 111//21 112//22
f 85//21 112//22 86//22
f 86//22 112//22 113//23
f 86//22 113//23 87//23
f 87//23 113//23 88//24
f 113//23 114//24 88//24
f 88//24 114//24 115//25
f 88//24 115//25 89//25
f 89//25 115//25 116//26
f 89//25 116//26 90//26
f 90//26 116//26 96//8
f 90//26 96//8 91//8
f 91//8 96//8 92//7
f 117//2 93//2 118//2
f 118//2 93//2 94//2
f 118//2 94//2 119//2
f 119//2 94//2 95//2
f 119//2 95//2 120//2
f 120//2 95//2 96//2
f 120//2 96//2 121//2
f 121//2 96//2 116//2
f 121//2 116//2 122//2
f 122//2 116//2 115//2
f 122//2 115//2 123//2
f 123//2 115//2 114//2
f 123//2 114//2 124//2
f 124//2 114//2 113//2
f 124//2 113//2 112//2
f 117//2 125//2 93//2
f 93//2 125//2 97//2
f 125//2 126//2 97//2
f 97//2 126//2 98//2
f 126//2 127//2 98//2
f 98//2 127//2 99//2
f 127//2 128//2 99//2
f 99//2 128//2 100//2
f 128//2 129//2 100//2
f 100//2 129//2 101//2
f 101//2 129//2 102//2
f 102//2 129//2 130//2
f 102//2 130//2 103//2
f 103//2 130//2 131//2
f 103//2 131//2 104//2
f 104//2 131//2 132//2
f 104//2 132//2 105//2
f 105//2 132//2 133//2
f 105//2 133//2 106//2
f 106//2 133//2 134//2
f 106//2 134//2 107//2
f 107//2 134//2 135//2
f 107//2 135//2 136//2
f 107//2 136//2 108//2
f 108//2 136//2 137//2
f 108//2 137//2 109//2
f 109//2 137//2 138//2
f 109//2 138//2 110//2
f 110//2 138//2 139//2
f 110//2 139//2 111//2
f 111//2 139//2 140//2
f 111//2 140//2 112//2
f 112//2 140//2 124//2
f 125//5 117//6 141//6
f 141//6 117//6 118//4
f 141//6 118//4 142//4
f 142//4 118//4 119//7
f 142//4 119//7 143//7
f 143//7 119//7 144//8
f 141//6 145//5 125//5
f 125//5 145//5 146//9
f 125//5 146//9 126//9
f 126//9 146//9 147//10
f 126//9 147//10 127//10
f 127//10 147//10 148//11
f 127//10 148//11 128//11
f 128//11 148//11 129//12
f 148//11 149//12 129//12
f 129//12 149//12 150//13
f 129//12 150//13 130//13
f 130//13 150//13 151//14
f 130//13 151//14 131//14
f 131//14 151//14 132//15
f 151//14 152//15 132//15
f 132//15 152//15 153//16
f 132//15 153//16 133//16
f 133//16 153//16 154//17
f 133//16 154//17 134//17
f 134//17 154//17 135//3
f 154//17 155//3 135//3
f 135//3 155//3 136//18
f 155//3 156//18 136//18
f 136//18 156//18 157//19
f 136//18 157//19 137//19
f 137//19 157//19 158//20
f 137//19 158//20 138//20
f 138//20 158//20 139//21
f 158//20 159//21 139//21
f 139//21 159//21 160//22
f 139//21 160//22 140//22
f 140//22 160//22 161//23
f 140//22 161//23 124//23
f 124//23 161//23 123//24
f 161//23 162//24 123//24
f 123//24 162//24 163//25
f 123//24 163//25 122//25
f 122//25 163//25 164//26
f 122//25 164//26 121//26
f 121//26 164//26 144//8
f 121//26 144//8 120//8
f 120//8 144//8 119//7
f 165//1 149//1 166//1
f 166//1 149//1 148//1
f 166//1 148//1 167//1
f 167//1 148//1 147//1
f 167//1 147//1 168//1
f 168//1 147//1 146//1
f 168//1 146//1 169//1
f 169//1 146//1 145//1
f 169//1 145//1 170//1
f 170//1 145//1 141//1
f 170//1 141//1 171//1
f 171//1 141//1 142//1
f 171//1 142//1 143//1
f 165//1 172//1 149//1
f 149//1 172//1 150//1
f 172//1 173//1 150//1
f 150//1 173//1 151//1
f 173//1 174//1 151//1
f 151//1 174//1 152//1
f 174//1 175//1 152//1
f 152//1 175//1 153//1
f 175//1 176//1 153//1
f 153//1 176//1 154//1
f 154//1 176//1 155//1
f 155//1 176//1 177//1
f 155//1 177//1 156//1
f 156//1 177//1 178//1
f 156//1 178//1 157//1
f 157//1 178//1 179//1
f 157//1 179//1 158//1
f 158//1 179//1 180//1
f 158//1 180//1 159//1
f 159//1 180//1 181//1
f 159//1 181//1 160//1
f 160//1 181//1 182//1
f 160//1 182//1 161//1
f 161//1 182//1 183//1
f 161//1 183//1 184//1
f 161//1 184//1 162//1
f 162//1 184//1 185//1
f 162//1 185//1 163//1
f 163//1 185//1 186//1
f 163//1 186//1 164//1
f 164//1 186//1 187//1
f 164//1 187//1 144//1
f 144//1 187//1 188//1
f 144//1 188//1 143//1
f 143//1 188//1 171//1
f 169//19 170//18 189//18
f 189//18 170//18 171//3
f 189//18 171//3 190//3
f 190//3 171//3 188//17
f 190//3 188//17 191//17
f 191//17 188//17 192//16
f 189//18 193//19 169//19
f 169//19 193//19 194//20
f 169//19 194//20 168//20
f 168//20 194//20 195//21
f 168//20 195//21 167//21
f 167//21 195//21 196//22
f 167//21 196//22 166//22
f 166//22 196//22 165//23
f 196//22 197//23 165//23
f 165//23 197//23 198//24
f 165//23 198//24 172//24
f 172//24 198//24 199//25
f 172//24 199//25 173//25
f 173//25 199//25 174//26
f 199//25 200//26 174//26
f 174//26 200//26 201//8
f 174//26 201//8 175//8
f 175//8 201//8 202//7
f 175//8 202//7 176//7
f 176//7 202//7 177//4
f 202//7 203//4 177//4
f 177//4 203//4 178//6
f 203//4 204//6 178//6
f 178//6 204//6 205//5
f 178//6 205//5 179//5
f 179//5 205//5 206//9
f 179//5 206//9 180//9
f 180//9 206//9 181//10
f 206//9 207//10 181//10
f 181//10 207//10 208//11
f 181//10 208//11 182//11
f 182//11 208//11 209//12
f 182//11 209//12 183//12
f 183//12 209//12 184//13
f 209//12 210//13 184//13
f 184//13 210//13 211//14
f 184//13 211//14 185//14
f 185//14 211//14 212//15
f 185//14 212//15 186//15
f 186//15 212//15 192//16
f 186//15 192//16 187//16
f 187//16 192//16 188//17
f 213//1 197//1 214//1
f 214//1 197//1 196//1
f 214//1 196//1 215//1
f 215//1 196//1 195//1
f 215//1 195//1 216//1
f 216//1 195//1 194//1
f 216//1 194//1 217//1
f 217//1 194//1 193//1
f 217//1 193//1 218//1
f 218//1 193//1 189//1
f 218//1 189//1 219//1
f 219//1 189//1 190//1
f 219//1 190//1 191//1
f 213//1 220//1 197//1
f 197//1 220//1 198//1
f 220//1 221//1 198//1
f 198//1 221//1 199//1
f 221//1 222//1 199//1
f 199//1 222//1 200//1
f 222//1 223//1 200//1
f 200//1 223//1 201//1
f 223//1 224//1 201//1
f 201//1 224//1 202//1
f 202//1 224//1 203//1
f 203//1 224//1 225//1
f 203//1 225//1 204//1
f 204//1 225//1 226//1
f 204//1 226//1 205//1
f 205//1 226//1 227//1
f 205//1 227//1 206//1
f 206//1 227//1 228//1
f 206//1 228//1 207//1
f 207//1 228//1 229//1
f 207//1 229//1 208//1
f 208//1 229//1 230//1
f 208//1 230//1 209//1
f 209//1 230//1 231//1
f 209//1 231//1 232//1
f 209//1 232//1 210//1
f 210//1 232//1 233//1
f 210//1 233//1 211//1
f 211//1 233//1 234//1
f 211//1 234//1 212//1
f 212//1 234//1 235//1
f 212//1 235//1 192//1
f 192//1 235//1 236//1
f 192//1 236//1 191//1
f 191//1 236//1 219//1
f 217//19 218//18 237//18
f 237//18 218//18 219//3
f 237//18 219//3 238//3
f 238//3 219//3 236//17
f 238//3 236//17 239//17
f 239//17 236//17 240//16
f 237//18 241//19 217//19
f 217//19 241//19 242//20
f 217//19 242//20 216//20
f 216//20 242//20 243//21
f 216//20 243//21 215//21
f 215//21 243//21 244//22
f 215//21 244//22 214//22
f 214//22 244//22 213//23
f 244//22 245//23 213//23
f 213//23 245//23 246//24
f 213//23 246//24 220//24
f 220//24 246//24 247//25
f 220//24 247//25 221//25
f 221//25 247//25 222//26
f 247//25 248//26 222//26
f 222//26 248//26 249//8
f 222//26 249//8 223//8
f 223//8 249//8 250//7
f 223//8 250//7 224//7
f 224//7 250//7 225//4
f 250//7 251//4 225//4
f 225//4 251//4 226//6
f 251//4 252//6 226//6
f 226//6 252//6 253//5
f 226//6 253//5 227//5
f 227//5 253//5 254//9
f 227//5 254//9 228//9
f 228//9 254//9 229//10
f 254//9 255//10 229//10
f 229//10 255//10 256//11
f 229//10 256//11 230//11
f 230//11 256//11 257//12
f 230//11 257//12 231//12
f 231//12 257//12 232//13
f 257//12 258//13 232//13
f 232//13 258//13 259//14
f 232//13 259//14 233//14
f 233//14 259//14 260//15
f 233//14 260//15 234//15
f 234//15 260//15 240//16
f 234//15 240//16 235//16
f 235//16 240//16 236//17
f 241//27 237//28 261//28
f 261//28 237//28 238//29
f 261//28 238//29 262//29
f 262//29 238//29 239//30
f 262//29 239//30 263//30
f 263//30 239//30 264//31
f 261//28 265//27 241//27
f 241//27 265//27 266//32
f 241//27 266//32 242//32
f 242//32 266//32 267//33
f 242//32 267//33 243//33
f 243//33 267//33 268//34
f 243//33 268//34 244//34
f 244//34 268//34 245//35
f 268//34 269//35 245//35
f 245//35 269//35 270//36
f 245//35 270//36 246//36
f 246//36 270//36 271//37
f 246//36 271//37 247//37
f 247//37 271//37 248//38
f 271//37 272//38 248//38
f 248//38 272//38 273//39
f 248//38 273//39 249//39
f 249//39 273//39 274//40
f 249//39 274//40 250//40
f 250//40 274//40 251//41
f 274//40 275//41 251//41
f 251//41 275//41 252//42
f 275//41 276//42 252//42
f 252//42 276//42 277//43
f 252//42 277//43 253//43
f 253//43 277//43 278//44
f 253//43 278//44 254//44
f 254//44 278//44 255//45
f 278//44 279//45 255//45
f 255//45 279//45 280//46
f 255//45 280//46 256//46
f 256//46 280//46 281//47
f 256//46 281//47 257//47
f 257//47 281//47 258//48
f 281//47 282//48 258//48
f 258//48 282//48 283//49
f 258//48 283//49 259//49
f 259//49 283//49 284//50
f 259//49 284//50 260//50
f 260//50 284//50 264//31
f 260//50 264//31 240//31
f 240//31 264//31 239//30
f 265//19 261//18 285//18
f 285//18 261//18 262//3
f 285//18 262//3 286//3
f 286//3 262//3 263//17
f 286//3 263//17 287//17
f 287//17 263//17 288//16
f 285//18 289//19 265//19
f 265//19 289//19 290//20
f 265//19 290//20 266//20
f 266//20 290//20 291//21
f 266//20 291//21 267//21
f 267//21 291//21 292//22
f 267//21 292//22 268//22
f 268//22 292//22 269//23
f 292//22 293//23 269//23
f 269//23 293//23 294//24
f 269//23 294//24 270//24
f 270//24 294//24 295//25
f 270//24 295//25 271//25
f 271//25 295//25 272//26
f 295//25 296//26 272//26
f 272//26 296//26 297//8
f 272//26 297//8 273//8
f 273//8 297//8 298//7
f 273//8 298//7 274//7
f 274//7 298//7 275//4
f 298//7 299//4 275//4
f 275//4 299//4 276//6
f 299//4 300//6 276//6
f 276//6 300//6 301//5
f 276//6 301//5 277//5
f 277//5 301//5 302//9
f 277//5 302//9 278//9
f 278//9 302//9 279//10
f 302//9 303//10 279//10
f 279//10 303//10 304//11
f 279//10 304//11 280//11
f 280//11 304//11 305//12
f 280//11 305//12 281//12
f 281//12 305//12 282//13
f 305//12 306//13 282//13
f 282//13 306//13 307//14
f 282//13 307//14 283//14
f 283//14 307//14 308//15
f 283//14 308//15 284//15
f 284//15 308//15 288//16
f 284//15 288//16 264//16
f 264//16 288//16 263//17
f 309//1 293//1 310//1
f 310//1 293//1 292//1
f 310//1 292//1 311//1
f 311//1 292//1 291//1
f 311//1 291//1 312//1
f 312//1 291//1 290//1
f 312//1 290//1 313//1
f 313//1 290//1 289//1
f 313//1 289//1 314//1
f 314//1 289//1 285//1
f 314//1 285//1 315//1
f 315//1 285//1 286//1
f 315//1 286//1 287//1
f 309//1 316//1 293//1
f 293//1 316//1 294//1
f 316//1 317//1 294//1
f 294//1 317//1 295//1
f 317//1 318//1 295//1
f 295//1 318//1 296//1
f 318//1 319//1 296//1
f 296//1 319//1 297//1
f 319//1 320//1 297//1
f 297//1 320//1 298//1
f 298//1 320//1 299//1
f 299//1 320//1 321//1
f 299//1 321//1 300//1
f 300//1 321//1 322//1
f 300//1 322//1 301//1
f 301//1 322//1 323//1
f 301//1 323//1 302//1
f 302//1 323//1 324//1
f 302//1 324//1 303//1
f 303//1 324//1 325//1
f 303//1 325//1 304//1
f 304//1 325//1 326//1
f 304//1 326//1 305//1
f 305//1 326//1 327//1
f 305//1 327//1 328//1
f 305//1 328//1 306//1
f 306//1 328//1 329//1
f 306//1 329//1 307//1
f 307//1 329//1 330//1
f 307//1 330//1 308//1
f 308//1 330//1 331//1
f 308//1 331//1 288//1
f 288//1 331//1 332//1
f 288//1 332//1 287//1
f 287//1 332//1 315//1
f 10//3 321//3 8//51
f 8//51 321//3 320//17
f 8//51 320//17 6//52
f 6//52 320//17 319//16
f 6//52 319//16 333//16
f 333//16 319//16 318//15
f 333//16 318//15 334//15
f 334//15 318//15 335//14
f 10//3 9//53 321//3
f 321//3 9//53 322//18
f 9//53 7//54 322//18
f 322//18 7//54 323//19
f 323//19 7//54 336//19
f 336//19 7//54 1//54
f 336//19 1//54 337//18
f 337//18 1//54 3//53
f 337//18 3//53 338//3
f 338//3 3//53 5//3
f 338//3 5//3 4//51
f 338//3 4//51 339//17
f 339//17 4//51 2//52
f 339//17 2//52 333//16
f 333//16 2//52 6//52
f 20//4 315//4 18//55
f 18//55 315//4 332//7
f 18//55 332//7 16//56
f 16//56 332//7 331//8
f 16//56 331//8 340//8
f 340//8 331//8 330//26
f 340//8 330//26 341//26
f 341//26 330//26 329//25
f 341//26 329//25 342//25
f 342//25 329//25 328//24
f 342//25 328//24 343//24
f 343//24 328//24 344//23
f 20//4 19//57 315//4
f 315//4 19//57 314//6
f 19//57 17//58 314//6
f 314//6 17//58 313//5
f 313//5 17//58 345//5
f 345//5 17//58 11//58
f 345//5 11//58 346//6
f 346//6 11//58 13//57
f 346//6 13//57 347//4
f 347//4 13//57 15//4
f 347//4 15//4 14//55
f 347//4 14//55 348//7
f 348//7 14//55 12//56
f 348//7 12//56 340//8
f 340//8 12//56 16//56
f 345//5 349//9 313//5
f 313//5 349//9 312//9
f 349//9 350//10 312//9
f 312//9 350//10 311//10
f 350//10 351//11 311//10
f 311//10 351//11 310//11
f 310//11 351//11 309//12
f 309//12 351//11 352//12
f 309//12 352//12 353//13
f 309//12 353//13 316//13
f 316//13 353//13 335//14
f 316//13 335//14 317//14
f 317//14 335//14 318//15
f 336//19 354//20 323//19
f 323//19 354//20 324//20
f 324//20 354//20 325//21
f 325//21 354//20 355//21
f 325//21 355//21 356//22
f 325//21 356//22 326//22
f 326//22 356//22 344//23
f 326//22 344//23 327//23
f 327//23 344//23 328//24
f 357//1 352//1 358//1
f 358//1 352//1 351//1
f 358//1 351//1 359//1
f 359//1 351//1 350//1
f 359//1 350//1 360//1
f 360//1 350//1 349//1
f 360//1 349//1 361//1
f 361//1 349//1 345//1
f 361//1 345//1 362//1
f 362//1 345//1 346//1
f 362//1 346//1 363//1
f 363//1 346//1 347//1
f 363//1 347//1 348//1
f 357//1 364//1 352//1
f 352//1 364//1 353//1
f 364//1 365//1 353//1
f 353//1 365//1 335//1
f 365//1 366//1 335//1
f 335//1 366//1 334//1
f 366//1 367//1 334//1
f 334//1 367//1 333//1
f 367//1 368//1 333//1
f 333//1 368//1 339//1
f 339//1 368//1 338//1
f 338//1 368//1 369//1
f 338//1 369//1 337//1
f 337//1 369//1 370//1
f 337//1 370//1 336//1
f 336//1 370//1 371//1
f 336//1 371//1 354//1
f 354//1 371//1 372//1
f 354//1 372//1 355//1
f 355//1 372//1 373//1
f 355//1 373//1 356//1
f 356//1 373//1 374//1
f 356//1 374//1 344//1
f 344//1 374//1 375//1
f 344//1 375//1 376//1
f 344//1 376//1 343//1
f 343//1 376//1 377//1
f 343//1 377//1 342//1
f 342//1 377//1 378//1
f 342//1 378//1 341//1
f 341//1 378//1 379//1
f 341//1 379//1 340//1
f 340//1 379//1 380//1
f 340//1 380//1 348//1
f 348//1 380//1 363//1
f 381//6 362//6 382//4
f 382//4 362//6 363//4
f 382//4 363//4 383//7
f 383//7 363//4 380//7
f 383//7 380//7 379//8
f 381//6 384//5 362//6
f 362//6 384//5 361//5
f 384//5 385//9 361//5
f 361//5 385//9 360//9
f 360//9 385//9 359//10
f 359//10 385//9 386//10
f 359//10 386//10 358//11
f 358//11 386//10 387//11
f 358//11 387//11 388//12
f 358//11 388//12 357//12
f 357//12 388//12 389//13
f 357//12 389//13 364//13
f 364//13 389//13 365//14
f 389//13 390//14 365//14
f 365//14 390//14 366//15
f 390//14 391//15 366//15
f 366//15 391//15 392//16
f 366//15 392//16 367//16
f 367//16 392//16 393//17
f 367//16 393//17 368//17
f 368//17 393//17 369//3
f 393//17 394//3 369//3
f 369//3 394//3 370//18
f 394//3 395//18 370//18
f 370//18 395//18 396//19
f 370//18 396//19 371//19
f 371//19 396//19 397//20
f 371//19 397//20 372//20
f 372//20 397//20 373//21
f 397//20 398//21 373//21
f 373//21 398//21 374//22
f 398//21 399//22 374//22
f 374//22 399//22 400//23
f 374//22 400//23 375//23
f 375//23 400//23 401//24
f 375//23 401//24 376//24
f 376//24 401//24 377//25
f 401//24 402//25 377//25
f 377//25 402//25 378//26
f 402//25 403//26 378//26
f 378//26 403//26 404//8
f 378//26 404//8 379//8
f 379//8 404//8 383//7
f 405//59 406//60 407//61
f 407//61 406//60 408//62
f 407//61 408//62 409//63
f 409//63 408//62 410//64
f 409//63 410//64 411//65
f 411//65 410//64 412//66
f 411//65 412//66 413//67
f 413//67 412//66 414//68
f 413//67 414//68 415//69
f 415//69 414//68 416//70
f 415//69 416//70 417//71
f 417//71 416//70 418//72
f 417//71 418//72 419//4
f 419//4 418//72 420//73
f 419//4 420//73 421//74
f 421//74 420//73 422//75
f 421//74 422//75 423//76
f 423//76 422//75 424//77
f 423//76 424//77 425//78
f 425//78 424//77 426//79
f 425//78 426//79 427//80
f 427//80 426//79 428//81
f 427//80 428//81 429//82
f 429//82 428//81 430//83
f 429//82 430//83 431//84
f 431//84 430//83 432//85
f 431//84 432//85 433//86
f 433//86 432//85 434//87
f 433//86 434//87 435//88
f 435//88 434//87 436//89
f 435//88 436//89 437//90
f 437//90 436//89 438//91
f 437//90 438//91 439//92
f 439//92 438//91 440//93
f 439//92 440//93 441//94
f 441//94 440//93 442//95
f 441//94 442//95 443//96
f 443//96 442//95 398//97
f 443//96 398//97 397//98
f 405//59 444//99 406//60
f 406//60 444//99 445//100
f 406//60 445//100 446//101
f 446//101 447//102 406//60
f 406//60 447//102 448//103
f 406//60 448//103 449//104
f 449//104 448//103 450//105
f 449//104 450//105 451//106
f 451//106 450//105 452//107
f 451//106 452//107 453//108
f 453//108 452//107 454//109
f 453//108 454//109 455//110
f 455//110 454//109 456//111
f 455//110 456//111 457//112
f 457//112 456//111 387//113
f 457//112 387//113 386//114
f 458//115 459//116 460//117
f 460//117 459//116 461//118
f 460//117 461//118 462//119
f 462//119 461//118 463//120
f 462//119 463//120 464//121
f 464//121 463//120 465//122
f 464//121 465//122 466//123
f 466//123 465//122 467//124
f 466//123 467//124 448//103
f 448//103 467//124 468//125
f 448//103 468//125 469//126
f 469//126 468//125 470//127
f 469//126 470//127 471//128
f 471//128 470//127 472//129
f 471//128 472//129 473//130
f 473//130 472//129 474//131
f 473//130 474//131 456//111
f 456//111 474//131 388//132
f 456//111 388//132 387//113
f 458//115 460//117 475//14
f 475//14 460//117 476//133
f 475//14 476//133 477//134
f 477//134 476//133 478//135
f 477//134 478//135 466//123
f 466//123 478//135 479//136
f 466//123 479//136 464//121
f 464//121 479//136 462//119
f 458//115 480//137 459//116
f 459//116 480//137 481//138
f 459//116 481//138 482//139
f 482//139 481//138 483//140
f 482//139 483//140 484//141
f 484//141 483//140 485//142
f 484//141 485//142 486//143
f 486//143 485//142 487//144
f 486//143 487//144 488//145
f 488//145 487//144 489//146
f 488//145 489//146 474//131
f 474//131 489//146 490//147
f 474//131 490//147 389//148
f 389//148 490//147 390//149
f 480//137 491//150 481//138
f 481//138 491//150 492//151
f 481//138 492//151 483//140
f 483//140 492//151 493//152
f 483//140 493//152 485//142
f 485//142 493//152 494//153
f 485//142 494//153 487//144
f 487//144 494//153 495//154
f 487//144 495//154 392//155
f 392//155 495//154 393//156
f 491//150 496//157 492//151
f 492//151 496//157 497//158
f 492//151 497//158 493//152
f 493//152 497//158 498//159
f 493//152 498//159 494//153
f 494//153 498//159 499//160
f 494//153 499//160 495//154
f 495//154 499//160 500//161
f 495//154 500//161 393//156
f 393//156 500//161 394//162
f 496//157 501//3 497//158
f 497//158 501//3 502//163
f 497//158 502//163 503//164
f 503//164 502//163 504//165
f 503//164 504//165 505//166
f 505//166 504//165 506//167
f 505//166 506//167 507//168
f 507//168 506//167 508//169
f 507//168 508//169 509//170
f 509//170 508//169 510//21
f 509//170 510//21 511//171
f 511//171 510//21 512//172
f 511//171 512//172 513//173
f 513//173 512//172 514//174
f 513//173 514//174 515//175
f 515//175 514//174 516//176
f 515//175 516//176 517//177
f 517//177 518//178 515//175
f 515//175 518//178 519//179
f 515//175 519//179 520//180
f 433//86 521//181 520//180
f 520//180 521//181 522//182
f 520//180 522//182 515//175
f 515//175 522//182 523//183
f 515//175 523//183 524//184
f 524//184 523//183 525//185
f 524//184 525//185 526//186
f 526//186 525//185 527//187
f 526//186 527//187 528//188
f 528//188 527//187 529//189
f 528//188 529//189 530//190
f 530//190 529//189 531//191
f 530//190 531//191 532//192
f 532//192 531//191 499//160
f 532//192 499//160 498//159
f 419//4 421//74 533//193
f 533//193 421//74 534//194
f 533//193 534//194 535//195
f 535//195 534//194 536//196
f 535//195 536//196 537//197
f 537//197 536//196 538//198
f 537//197 538//198 539//199
f 539//199 538//198 540//200
f 539//199 540//200 541//201
f 541//201 540//200 542//202
f 541//201 542//202 543//203
f 543//203 542//202 544//204
f 543//203 544//204 433//86
f 433//86 544//204 545//205
f 433//86 545//205 546//206
f 546//206 545//205 547//207
f 546//206 547//207 548//208
f 548//208 547//207 549//209
f 548//208 549//209 427//80
f 427//80 549//209 425//78
f 381//210 382//211 550//212
f 550//212 382//211 383//213
f 550//212 383//213 551//214
f 551//214 383//213 404//215
f 551//214 404//215 552//216
f 552//216 404//215 403//217
f 552//216 403//217 553//218
f 553//218 403//217 402//219
f 553//218 402//219 401//220
f 398//97 442//95 399//221
f 399//221 442//95 440//93
f 399//221 440//93 400//222
f 400//222 440//93 554//223
f 400//222 554//223 401//220
f 401//220 554//223 555//224
f 401//220 555//224 553//218
f 553//218 555//224 552//216
f 397//98 396//225 443//96
f 443//96 396//225 556//226
f 443//96 556//226 441//94
f 441//94 556//226 557//227
f 441//94 557//227 439//92
f 439//92 557//227 558//228
f 439//92 558//228 437//90
f 437//90 558//228 559//229
f 437//90 559//229 435//88
f 435//88 559//229 521//181
f 435//88 521//181 433//86
f 556//226 396//225 560//230
f 560//230 396//225 395//231
f 560//230 395//231 500//161
f 500//161 395//231 394//162
f 487//144 392//155 489//146
f 489//146 392//155 391//232
f 489//146 391//232 390//149
f 389//148 388//132 474//131
f 386//114 385//233 457//112
f 457//112 385//233 561//234
f 457//112 561//234 562//235
f 562//235 561//234 563//236
f 562//235 563//236 564//237
f 564//237 563//236 565//238
f 564//237 565//238 566//239
f 566//239 565//238 567//240
f 566//239 567//240 406//60
f 406//60 567//240 408//62
f 385//233 384//241 561//234
f 561//234 384//241 568//242
f 561//234 568//242 569//243
f 569//243 568//242 570//244
f 569//243 570//244 571//245
f 571//245 570//244 572//246
f 571//245 572//246 573//247
f 573//247 572//246 574//248
f 573//247 574//248 416//70
f 416//70 574//248 418//72
f 384//241 381//210 568//242
f 568//242 381//210 550//212
f 568//242 550//212 570//244
f 570//244 550//212 575//249
f 570//244 575//249 572//246
f 572//246 575//249 576//250
f 572//246 576//250 574//248
f 574//248 576//250 577//251
f 574//248 577//251 418//72
f 418//72 577//251 420//73
f 448//103 469//126 578//252
f 578//252 469//126 471//128
f 578//252 471//128 579//253
f 579//253 471//128 473//130
f 579//253 473//130 454//109
f 454//109 473//130 456//111
f 448//103 578//252 580//254
f 580//254 578//252 579//253
f 580//254 579//253 452//107
f 452//107 579//253 454//109
f 433//86 546//206 581//255
f 581//255 546//206 548//208
f 581//255 548//208 429//82
f 429//82 548//208 427//80
f 408//62 567//240 410//64
f 410//64 567//240 582//256
f 410//64 582//256 412//66
f 412//66 582//256 583//257
f 412//66 583//257 414//68
f 414//68 583//257 573//247
f 414//68 573//247 416//70
f 421//74 423//76 534//194
f 534//194 423//76 584//258
f 534//194 584//258 536//196
f 536//196 584//258 585//259
f 536//196 585//259 538//198
f 538//198 585//259 586//260
f 538//198 586//260 540//200
f 540//200 586//260 544//204
f 540//200 544//204 542//202
f 515//175 524//184 513//173
f 513//173 524//184 511//171
f 524//184 526//186 511//171
f 511//171 526//186 509//170
f 526//186 528//188 509//170
f 509//170 528//188 507//168
f 528//188 530//190 507//168
f 507//168 530//190 505//166
f 530//190 532//192 505//166
f 505//166 532//192 503//164
f 532//192 498//159 503//164
f 503//164 498//159 497//158
f 460//117 462//119 476//133
f 476//133 462//119 479//136
f 476//133 479//136 478//135
f 433//86 581//255 431//84
f 431//84 581//255 429//82
f 428//81 587//261 588//262
f 588//262 587//261 555//224
f 588//262 555//224 589//263
f 589//263 555//224 554//223
f 589//263 554//223 438//91
f 438//91 554//223 440//93
f 555//224 587//261 552//216
f 552//216 587//261 590//264
f 552//216 590//264 591//265
f 591//265 590//264 592//266
f 591//265 592//266 576//250
f 576//250 592//266 577//251
f 590//264 587//261 426//79
f 426//79 587//261 428//81
f 552//216 591//265 551//214
f 551//214 591//265 575//249
f 551//214 575//249 550//212
f 457//112 562//235 455//110
f 455//110 562//235 453//108
f 451//106 453//108 564//237
f 564//237 453//108 562//235
f 448//103 580//254 450//105
f 450//105 580//254 452//107
f 428//81 588//262 430//83
f 430//83 588//262 593//267
f 430//83 593//267 432//85
f 432//85 593//267 434//87
f 588//262 589//263 593//267
f 593//267 589//263 436//89
f 593//267 436//89 434//87
f 438//91 436//89 589//263
f 465//122 594//268 467//124
f 467//124 594//268 595//269
f 467//124 595//269 468//125
f 468//125 595//269 470//127
f 463//120 596//270 594//268
f 594//268 596//270 597//271
f 594//268 597//271 595//269
f 595//269 597//271 598//272
f 595//269 598//272 470//127
f 470//127 598//272 472//129
f 594//268 465//122 463//120
f 461//118 482//139 596//270
f 596//270 482//139 484//141
f 596//270 484//141 597//271
f 597//271 484//141 486//143
f 597//271 486//143 598//272
f 598//272 486//143 488//145
f 598//272 488//145 472//129
f 472//129 488//145 474//131
f 499//160 531//191 500//161
f 500//161 531//191 560//230
f 531//191 529//189 560//230
f 560//230 529//189 556//226
f 529//189 527//187 556//226
f 556//226 527//187 557//227
f 527//187 525//185 557//227
f 557//227 525//185 558//228
f 525//185 523//183 558//228
f 558//228 523//183 559//229
f 523//183 522//182 559//229
f 559//229 522//182 521//181
f 490//147 489//146 390//149
f 567//240 565//238 582//256
f 582//256 565//238 599//273
f 582//256 599//273 583//257
f 583//257 599//273 571//245
f 583//257 571//245 573//247
f 420//73 577//251 422//75
f 422//75 577//251 592//266
f 422//75 592//266 424//77
f 424//77 592//266 590//264
f 424//77 590//264 426//79
f 423//76 425//78 584//258
f 584//258 425//78 549//209
f 584//258 549//209 585//259
f 585//259 549//209 547//207
f 585//259 547//207 586//260
f 586//260 547//207 545//205
f 586//260 545//205 544//204
f 406//60 449//104 566//239
f 566//239 449//104 451//106
f 566//239 451//106 564//237
f 565//238 563//236 599//273
f 599//273 563//236 569//243
f 599//273 569//243 571//245
f 569//243 563//236 561//234
f 575//249 591//265 576//250
f 596//270 463//120 461//118
f 482//139 461//118 459//116
f 405//59 407//61 600//61
f 600//61 407//61 409//63
f 600//61 409//63 601//63
f 601//63 409//63 411//65
f 601//63 411//65 602//65
f 602//65 411//65 413//67
f 602//65 413//67 603//67
f 603//67 413//67 415//69
f 603//67 415//69 604//69
f 604//69 415//69 417//71
f 604//69 417//71 605//71
f 605//71 417//71 419//4
f 605//71 419//4 606//4
f 606//4 419//4 533//193
f 606//4 533//193 607//193
f 607//193 533//193 535//195
f 607//193 535//195 608//195
f 608//195 535//195 537//197
f 608//195 537//197 609//197
f 609//197 537//197 539//199
f 609//197 539//199 610//199
f 610//199 539//199 541//201
f 610//199 541//201 611//201
f 611//201 541//201 543//203
f 611//201 543//203 612//203
f 612//203 543//203 613//86
f 600//61 614//59 405//59
f 405//59 614//59 444//99
f 614//59 615//99 444//99
f 444//99 615//99 445//100
f 615//99 616//100 445//100
f 445//100 616//100 617//101
f 445//100 617//101 446//101
f 446//101 617//101 447//102
f 617//101 618//102 447//102
f 447//102 618//102 448//103
f 618//102 619//103 448//103
f 448//103 619//103 466//123
f 619//103 620//123 466//123
f 466//123 620//123 621//134
f 466//123 621//134 477//134
f 477//134 621//134 622//14
f 477//134 622//14 475//14
f 475//14 622//14 623//115
f 475//14 623//115 458//115
f 458//115 623//115 624//137
f 458//115 624//137 480//137
f 480//137 624//137 625//150
f 480//137 625//150 491//150
f 491//150 625//150 626//157
f 491//150 626//157 496//157
f 496//157 626//157 501//3
f 626//157 627//3 501//3
f 501//3 627//3 502//163
f 627//3 628//163 502//163
f 502//163 628//163 629//165
f 502//163 629//165 504//165
f 504//165 629//165 630//167
f 504//165 630//167 506//167
f 506//167 630//167 631//169
f 506//167 631//169 508//169
f 508//169 631//169 632//21
f 508//169 632//21 510//21
f 510//21 632//21 633//172
f 510//21 633//172 512//172
f 512//172 633//172 634//174
f 512//172 634//174 514//174
f 514//174 634//174 516//176
f 634//174 635//176 516//176
f 516//176 635//176 517//177
f 635//176 636//177 517//177
f 517//177 636//177 518//178
f 636//177 637//178 518//178
f 518//178 637//178 638//179
f 518//178 638//179 519//179
f 519//179 638//179 520//180
f 638//179 639//180 520//180
f 520//180 639//180 433//86
f 639//180 613//86 433//86
f 433//86 613//86 543//203
f 640//274 641//275 642//276
f 642//276 641//275 643//277
f 642//276 643//277 644//278
f 644//278 643//277 645//279
f 644//278 645//279 646//280
f 646//280 645//279 647//281
f 646//280 647//281 648//282
f 648//282 647//281 649//283
f 648//282 649//283 650//284
f 650//284 649//283 651//285
f 650//284 651//285 652//286
f 652//286 651//285 653//287
f 652//286 653//287 654//288
f 654//288 653//287 655//289
f 654//288 655//289 656//290
f 656//290 655//289 657//291
f 656//290 657//291 658//292
f 645//279 659//293 647//281
f 647//281 659//293 649//283
f 660//294 661//295 662//296
f 662//296 661//295 663//297
f 662//296 663//297 664//298
f 664//298 663//297 665//299
f 664//298 665//299 658//292
f 658//292 665//299 666//300
f 658//292 666//300 656//290
f 656//290 666//300 667//301
f 656//290 667//301 668//302
f 668//302 667//301 669//303
f 668//302 669//303 670//304
f 670//304 669//303 671//305
f 670//304 671//305 672//306
f 672//306 671//305 614//59
f 672//306 614//59 673//307
f 673//307 614//59 674//308
f 673//307 674//308 675//309
f 675//309 674//308 676//310
f 675//309 676//310 677//311
f 677//311 676//310 678//312
f 677//311 678//312 648//282
f 648//282 678//312 679//313
f 648//282 679//313 646//280
f 646//280 679//313 680//314
f 646//280 680//314 681//315
f 681//315 680//314 682//316
f 681//315 682//316 683//317
f 683//317 682//316 684//318
f 683//317 684//318 685//319
f 685//319 684//318 606//4
f 685//319 606//4 607//193
f 660//294 686//320 661//295
f 661//295 686//320 687//321
f 661//295 687//321 688//322
f 688//322 687//321 689//323
f 688//322 689//323 690//324
f 690//324 689//323 691//325
f 690//324 691//325 692//326
f 692//326 691//325 693//327
f 692//326 693//327 628//163
f 628//163 693//327 629//165
f 686//320 694//328 687//321
f 687//321 694//328 695//329
f 687//321 695//329 689//323
f 689//323 695//329 696//330
f 689//323 696//330 691//325
f 691//325 696//330 697//331
f 691//325 697//331 693//327
f 693//327 697//331 698//332
f 693//327 698//332 629//165
f 629//165 698//332 630//167
f 694//328 699//333 695//329
f 695//329 699//333 700//334
f 695//329 700//334 696//330
f 696//330 700//334 701//335
f 696//330 701//335 697//331
f 697//331 701//335 702//336
f 697//331 702//336 698//332
f 698//332 702//336 703//337
f 698//332 703//337 630//167
f 630//167 703//337 631//169
f 700//334 699//333 704//338
f 704//338 699//333 705//339
f 704//338 705//339 706//340
f 704//338 706//340 707//341
f 707//341 706//340 708//342
f 707//341 708//342 709//343
f 709//343 708//342 710//344
f 709//343 710//344 711//345
f 711//345 710//344 712//346
f 711//345 712//346 713//347
f 713//347 712//346 714//348
f 713//347 714//348 715//349
f 715//349 714//348 716//350
f 715//349 716//350 717//351
f 717//351 716//350 640//274
f 717//351 640//274 642//276
f 712//346 718//352 714//348
f 714//348 718//352 716//350
f 685//319 607//193 719//353
f 719//353 607//193 608//195
f 719//353 608//195 720//354
f 720//354 608//195 609//197
f 720//354 609//197 721//355
f 721//355 609//197 610//199
f 721//355 610//199 722//356
f 722//356 610//199 611//201
f 722//356 611//201 723//357
f 723//357 611//201 612//203
f 723//357 612//203 724//358
f 724//358 612//203 613//86
f 724//358 613//86 639//180
f 639//180 638//179 724//358
f 724//358 638//179 637//178
f 724//358 637//178 636//177
f 704//338 707//341 725//359
f 725//359 707//341 726//360
f 725//359 726//360 727//361
f 727//361 726//360 728//362
f 727//361 728//362 729//363
f 729//363 728//362 730//364
f 729//363 730//364 635//176
f 635//176 730//364 731//365
f 635//176 731//365 636//177
f 636//177 731//365 732//366
f 636//177 732//366 724//358
f 724//358 732//366 733//367
f 724//358 733//367 734//368
f 734//368 733//367 735//369
f 734//368 735//369 736//370
f 736//370 735//369 737//371
f 736//370 737//371 738//372
f 738//372 737//371 739//373
f 738//372 739//373 740//374
f 740//374 739//373 741//375
f 740//374 741//375 742//376
f 742//376 741//375 743//377
f 742//376 743//377 683//317
f 683//317 743//377 681//315
f 631//169 703//337 744//378
f 744//378 703//337 745//379
f 744//378 745//379 746//380
f 746//380 745//379 747//381
f 746//380 747//381 748//382
f 748//382 747//381 749//383
f 748//382 749//383 634//174
f 634//174 749//383 750//384
f 634//174 750//384 635//176
f 635//176 750//384 751//385
f 635//176 751//385 752//386
f 752//386 751//385 753//387
f 752//386 753//387 727//361
f 727//361 753//387 725//359
f 631//169 744//378 632//21
f 632//21 744//378 754//388
f 632//21 754//388 633//172
f 633//172 754//388 755//389
f 633//172 755//389 634//174
f 634//174 755//389 756//390
f 634//174 756//390 748//382
f 748//382 756//390 746//380
f 628//163 627//3 692//326
f 692//326 627//3 626//157
f 692//326 626//157 757//391
f 757//391 626//157 625//150
f 757//391 625//150 758//392
f 758//392 625//150 624//137
f 758//392 624//137 759//393
f 759//393 624//137 623//115
f 759//393 623//115 760//394
f 760//394 623//115 622//14
f 760//394 622//14 761//395
f 761//395 622//14 621//134
f 761//395 621//134 762//396
f 762//396 621//134 620//123
f 762//396 620//123 763//397
f 763//397 620//123 619//103
f 763//397 619//103 618//102
f 618//102 617//101 763//397
f 763//397 617//101 616//100
f 763//397 616//100 615//99
f 615//99 614//59 763//397
f 763//397 614//59 764//398
f 763//397 764//398 765//399
f 765//399 764//398 669//303
f 765//399 669//303 667//301
f 606//4 766//400 605//71
f 605//71 766//400 767//401
f 605//71 767//401 604//69
f 604//69 767//401 768//402
f 604//69 768//402 603//67
f 603//67 768//402 769//403
f 603//67 769//403 602//65
f 602//65 769//403 770//404
f 602//65 770//404 601//63
f 601//63 770//404 771//405
f 601//63 771//405 600//61
f 600//61 771//405 772//406
f 600//61 772//406 614//59
f 614//59 772//406 773//407
f 614//59 773//407 774//408
f 774//408 773//407 775//409
f 774//408 775//409 776//410
f 776//410 775//409 777//411
f 776//410 777//411 778//412
f 778//412 777//411 779//413
f 778//412 779//413 679//313
f 679//313 779//413 680//314
f 614//59 774//408 780//414
f 780//414 774//408 776//410
f 780//414 776//410 781//415
f 781//415 776//410 778//412
f 781//415 778//412 678//312
f 678//312 778//412 679//313
f 727//361 729//363 752//386
f 752//386 729//363 635//176
f 674//308 614//59 782//416
f 782//416 614//59 780//414
f 782//416 780//414 781//415
f 646//280 681//315 644//278
f 644//278 681//315 743//377
f 644//278 743//377 642//276
f 642//276 743//377 741//375
f 642//276 741//375 717//351
f 717//351 741//375 739//373
f 717//351 739//373 715//349
f 715//349 739//373 737//371
f 715//349 737//371 783//417
f 783//417 737//371 735//369
f 783//417 735//369 784//418
f 784//418 735//369 733//367
f 784//418 733//367 785//419
f 785//419 733//367 732//366
f 785//419 732//366 731//365
f 715//349 783//417 713//347
f 713//347 783//417 786//420
f 713//347 786//420 711//345
f 711//345 786//420 787//421
f 711//345 787//421 709//343
f 709//343 787//421 726//360
f 709//343 726//360 707//341
f 783//417 784//418 786//420
f 786//420 784//418 788//422
f 786//420 788//422 787//421
f 787//421 788//422 728//362
f 787//421 728//362 726//360
f 784//418 785//419 788//422
f 788//422 785//419 730//364
f 788//422 730//364 728//362
f 785//419 731//365 730//364
f 782//416 781//415 676//310
f 676//310 781//415 678//312
f 648//282 650//284 677//311
f 677//311 650//284 789//423
f 677//311 789//423 675//309
f 675//309 789//423 790//424
f 675//309 790//424 673//307
f 673//307 790//424 672//306
f 669//303 764//398 671//305
f 671//305 764//398 614//59
f 782//416 676//310 674//308
f 650//284 652//286 789//423
f 789//423 652//286 791//425
f 789//423 791//425 790//424
f 790//424 791//425 670//304
f 790//424 670//304 672//306
f 652//286 654//288 791//425
f 791//425 654//288 668//302
f 791//425 668//302 670//304
f 656//290 668//302 654//288
f 749//383 792//426 750//384
f 750//384 792//426 793//427
f 750//384 793//427 751//385
f 751//385 793//427 753//387
f 747//381 794//428 792//426
f 792//426 794//428 795//429
f 792//426 795//429 793//427
f 793//427 795//429 796//430
f 793//427 796//430 753//387
f 753//387 796//430 725//359
f 792//426 749//383 747//381
f 745//379 702//336 794//428
f 794//428 702//336 701//335
f 794//428 701//335 795//429
f 795//429 701//335 700//334
f 795//429 700//334 796//430
f 796//430 700//334 704//338
f 796//430 704//338 725//359
f 663//297 661//295 797//431
f 797//431 661//295 688//322
f 797//431 688//322 798//432
f 798//432 688//322 690//324
f 798//432 690//324 757//391
f 757//391 690//324 692//326
f 665//299 663//297 799//433
f 799//433 663//297 797//431
f 799//433 797//431 800//434
f 800//434 797//431 798//432
f 800//434 798//432 758//392
f 758//392 798//432 757//391
f 666//300 665//299 801//435
f 801//435 665//299 799//433
f 801//435 799//433 802//436
f 802//436 799//433 800//434
f 802//436 800//434 759//393
f 759//393 800//434 758//392
f 667//301 666//300 803//437
f 803//437 666//300 801//435
f 803//437 801//435 804//438
f 804//438 801//435 802//436
f 804//438 802//436 760//394
f 760//394 802//436 759//393
f 724//358 734//368 723//357
f 723//357 734//368 722//356
f 734//368 736//370 722//356
f 722//356 736//370 721//355
f 736//370 738//372 721//355
f 721//355 738//372 720//354
f 738//372 740//374 720//354
f 720//354 740//374 719//353
f 740//374 742//376 719//353
f 719//353 742//376 685//319
f 606//4 684//318 766//400
f 766//400 684//318 682//316
f 766//400 682//316 805//439
f 805//439 682//316 680//314
f 805//439 680//314 779//413
f 766//400 805//439 767//401
f 767//401 805//439 806//440
f 767//401 806//440 768//402
f 768//402 806//440 807//441
f 768//402 807//441 769//403
f 769//403 807//441 808//442
f 769//403 808//442 770//404
f 770//404 808//442 772//406
f 770//404 772//406 771//405
f 761//395 762//396 809//443
f 809//443 762//396 763//397
f 809//443 763//397 765//399
f 760//394 761//395 804//438
f 804//438 761//395 809//443
f 804//438 809//443 803//437
f 803//437 809//443 765//399
f 803//437 765//399 667//301
f 744//378 746//380 754//388
f 754//388 746//380 756//390
f 754//388 756//390 755//389
f 742//376 683//317 685//319
f 805//439 779//413 806//440
f 806//440 779//413 777//411
f 806//440 777//411 807//441
f 807//441 777//411 775//409
f 807//441 775//409 808//442
f 808//442 775//409 773//407
f 808//442 773//407 772//406
f 794//428 747//381 745//379
f 702//336 745//379 703//337
f 649//444 659//445 810//445
f 810//445 659//445 645//446
f 810//445 645//446 811//446
f 811//446 645//446 643//447
f 811//446 643//447 812//447
f 812//447 643//447 641//448
f 812//447 641//448 813//448
f 813//448 641//448 640//449
f 813//448 640//449 814//449
f 814//449 640//449 716//450
f 814//449 716//450 815//450
f 815//450 716//450 718//451
f 815//450 718//451 816//451
f 816//451 718//451 817//452
f 810//445 818//444 649//444
f 649//444 818//444 651//453
f 818//444 819//453 651//453
f 651//453 819//453 820//454
f 651//453 820//454 653//454
f 653//454 820//454 821//455
f 653//454 821//455 655//455
f 655//455 821//455 822//456
f 655//455 822//456 657//456
f 657//456 822//456 823//457
f 657//456 823//457 658//457
f 658//457 823//457 824//458
f 658//457 824//458 664//458
f 664//458 824//458 825//459
f 664//458 825//459 662//459
f 662//459 825//459 660//460
f 825//459 826//460 660//460
f 660//460 826//460 686//461
f 826//460 827//461 686//461
f 686//461 827//461 828//462
f 686//461 828//462 694//462
f 694//462 828//462 829//463
f 694//462 829//463 699//463
f 699//463 829//463 830//464
f 699//463 830//464 705//464
f 705//464 830//464 831//465
f 705//464 831//465 706//465
f 706//465 831//465 832//466
f 706//465 832//466 708//466
f 708//466 832//466 833//467
f 708//466 833//467 710//467
f 710//467 833//467 712//452
f 833//467 817//452 712//452
f 712//452 817//452 718//451
f 834//2 812//2 835//2
f 835//2 812//2 813//2
f 835//2 813//2 836//2
f 836//2 813//2 814//2
f 836//2 814//2 837//2
f 837//2 814//2 815//2
f 837//2 815//2 838//2
f 838//2 815//2 816//2
f 838//2 816//2 839//2
f 839//2 816//2 817//2
f 839//2 817//2 840//2
f 840//2 817//2 833//2
f 840//2 833//2 841//2
f 841//2 833//2 832//2
f 841//2 832//2 831//2
f 834//2 842//2 812//2
f 812//2 842//2 811//2
f 842//2 843//2 811//2
f 811//2 843//2 810//2
f 843//2 844//2 810//2
f 810//2 844//2 818//2
f 844//2 845//2 818//2
f 818//2 845//2 819//2
f 845//2 846//2 819//2
f 819//2 846//2 820//2
f 820//2 846//2 821//2
f 821//2 846//2 847//2
f 821//2 847//2 822//2
f 822//2 847//2 848//2
f 822//2 848//2 823//2
f 823//2 848//2 849//2
f 823//2 849//2 824//2
f 824//2 849//2 850//2
f 824//2 850//2 825//2
f 825//2 850//2 851//2
f 825//2 851//2 826//2
f 826//2 851//2 852//2
f 826//2 852//2 853//2
f 826//2 853//2 827//2
f 827//2 853//2 854//2
f 827//2 854//2 828//2
f 828//2 854//2 855//2
f 828//2 855//2 829//2
f 829//2 855//2 856//2
f 829//2 856//2 830//2
f 830//2 856//2 857//2
f 830//2 857//2 831//2
f 831//2 857//2 841//2
f 842//5 834//6 858//6
f 858//6 834//6 835//4
f 858//6 835//4 859//4
f 859//4 835//4 836//7
f 859//4 836//7 860//7
f 860//7 836//7 861//8
f 858//6 862//5 842//5
f 842//5 862//5 863//9
f 842//5 863//9 843//9
f 843//9 863//9 864//10
f 843//9 864//10 844//10
f 844//10 864//10 865//11
f 844//10 865//11 845//11
f 845//11 865//11 846//12
f 865//11 866//12 846//12
f 846//12 866//12 867//13
f 846//12 867//13 847//13
f 847//13 867//13 868//14
f 847//13 868//14 848//14
f 848//14 868//14 849//15
f 868//14 869//15 849//15
f 849//15 869//15 870//16
f 849//15 870//16 850//16
f 850//16 870//16 871//17
f 850//16 871//17 851//17
f 851//17 871//17 852//3
f 871//17 872//3 852//3
f 852//3 872//3 853//18
f 872//3 873//18 853//18
f 853//18 873//18 874//19
f 853//18 874//19 854//19
f 854//19 874//19 875//20
f 854//19 875//20 855//20
f 855//20 875//20 856//21
f 875//20 876//21 856//21
f 856//21 876//21 877//22
f 856//21 877//22 857//22
f 857//22 877//22 878//23
f 857//22 878//23 841//23
f 841//23 878//23 840//24
f 878//23 879//24 840//24
f 840//24 879//24 880//25
f 840//24 880//25 839//25
f 839//25 880//25 881//26
f 839//25 881//26 838//26
f 838//26 881//26 861//8
f 838//26 861//8 837//8
f 837//8 861//8 836//7
f 882//1 866//1 883//1
f 883//1 866//1 865//1
f 883//1 865//1 884//1
f 884//1 865//1 864//1
f 884//1 864//1 885//1
f 885//1 864//1 863//1
f 885//1 863//1 886//1
f 886//1 863//1 862//1
f 886//1 862//1 887//1
f 887//1 862//1 858//1
f 887//1 858//1 888//1
f 888//1 858//1 859//1
f 888//1 859//1 860//1
f 882//1 889//1 866//1
f 866//1 889//1 867//1
f 889//1 890//1 867//1
f 867//1 890//1 868//1
f 890//1 891//1 868//1
f 868//1 891//1 869//1
f 891//1 892//1 869//1
f 869//1 892//1 870//1
f 892//1 893//1 870//1
f 870//1 893//1 871//1
f 871//1 893//1 872//1
f 872//1 893//1 894//1
f 872//1 894//1 873//1
f 873//1 894//1 895//1
f 873//1 895//1 874//1
f 874//1 895//1 896//1
f 874//1 896//1 875//1
f 875//1 896//1 897//1
f 875//1 897//1 876//1
f 876//1 897//1 898//1
f 876//1 898//1 877//1
f 877//1 898//1 899//1
f 877//1 899//1 878//1
f 878//1 899//1 900//1
f 878//1 900//1 901//1
f 878//1 901//1 879//1
f 879//1 901//1 902//1
f 879//1 902//1 880//1
f 880//1 902//1 903//1
f 880//1 903//1 881//1
f 881//1 903//1 904//1
f 881//1 904//1 861//1
f 861//1 904//1 905//1
f 861//1 905//1 860//1
f 860//1 905//1 888//1
f 886//5 887//6 906//6
f 906//6 887//6 888//4
f 906//6 888//4 907//4
f 907//4 888//4 905//7
f 907//4 905//7 908//7
f 908//7 905//7 909//8
f 906//6 910//5 886//5
f 886//5 910//5 911//9
f 886//5 911//9 885//9
f 885//9 911//9 912//10
f 885//9 912//10 884//10
f 884//10 912//10 913//11
f 884//10 913//11 883//11
f 883//11 913//11 882//12
f 913//11 914//12 882//12
f 882//12 914//12 915//13
f 882//12 915//13 889//13
f 889//13 915//13 916//14
f 889//13 916//14 890//14
f 890//14 916//14 891//15
f 916//14 917//15 891//15
f 891//15 917//15 918//16
f 891//15 918//16 892//16
f 892//16 918//16 919//17
f 892//16 919//17 893//17
f 893//17 919//17 894//3
f 919//17 920//3 894//3
f 894//3 920//3 895//18
f 920//3 921//18 895//18
f 895//18 921//18 922//19
f 895//18 922//19 896//19
f 896//19 922//19 923//20
f 896//19 923//20 897//20
f 897//20 923//20 898//21
f 923//20 924//21 898//21
f 898//21 924//21 925//22
f 898//21 925//22 899//22
f 899//22 925//22 926//23
f 899//22 926//23 900//23
f 900//23 926//23 901//24
f 926//23 927//24 901//24
f 901//24 927//24 928//25
f 901//24 928//25 902//25
f 902//25 928//25 929//26
f 902//25 929//26 903//26
f 903//26 929//26 909//8
f 903//26 909//8 904//8
f 904//8 909//8 905//7
f 910//468 906//469 930//469
f 930//469 906//469 907//470
f 930//469 907//470 931//470
f 931//470 907//470 908//471
f 931//470 908//471 932//471
f 932//471 908//471 933//472
f 930//469 934//468 910//468
f 910//468 934//468 935//473
f 910//468 935//473 911//473
f 911//473 935//473 936//474
f 911//473 936//474 912//474
f 912//474 936//474 937//475
f 912//474 937//475 913//475
f 913//475 937//475 914//476
f 937//475 938//476 914//476
f 914//476 938//476 939//477
f 914//476 939//477 915//477
f 915//477 939//477 940//478
f 915//477 940//478 916//478
f 916//478 940//478 917//479
f 940//478 941//479 917//479
f 917//479 941//479 942//480
f 917//479 942//480 918//480
f 918//480 942//480 943//481
f 918//480 943//481 919//481
f 919//481 943//481 920//482
f 943//481 944//482 920//482
f 920//482 944//482 921//483
f 944//482 945//483 921//483
f 921//483 945//483 946//484
f 921//483 946//484 922//484
f 922//484 946//484 947//485
f 922//484 947//485 923//485
f 923//485 947//485 924//486
f 947//485 948//486 924//486
f 924//486 948//486 949//487
f 924//486 949//487 925//487
f 925//487 949//487 950//488
f 925//487 950//488 926//488
f 926//488 950//488 927//489
f 950//488 951//489 927//489
f 927//489 951//489 952//490
f 927//489 952//490 928//490
f 928//490 952//490 953//491
f 928//490 953//491 929//491
f 929//491 953//491 933//472
f 929//491 933//472 909//472
f 909//472 933//472 908//471
f 951//2 949//2 952//2
f 952//2 949//2 948//2
f 952//2 948//2 953//2
f 953//2 948//2 947//2
f 953//2 947//2 933//2
f 933//2 947//2 946//2
f 933//2 946//2 932//2
f 932//2 946//2 945//2
f 932//2 945//2 931//2
f 931//2 945//2 944//2
f 931//2 944//2 930//2
f 930//2 944//2 943//2
f 930//2 943//2 934//2
f 934//2 943//2 942//2
f 934//2 942//2 935//2
f 935//2 942//2 941//2
f 935//2 941//2 936//2
f 936//2 941//2 940//2
f 936//2 940//2 937//2
f 937//2 940//2 939//2
f 937//2 939//2 938//2
f 951//2 950//2 949//2
l 1 3
l 3 5
l 5 4
l 4 2
l 1 2
l 6 8
l 8 10
l 10 9
l 9 7
l 7 6
l 7 1
l 2 6
l 11 13
l 13 15
l 15 14
l 14 12
l 11 12
l 16 18
l 18 20
l 20 19
l 19 17
l 17 16
l 17 11
l 12 16
l 31 33
l 33 35
l 35 37
l 37 39
l 39 41
l 41 43
l 43 42
l 42 40
l 40 38
l 38 36
l 36 34
l 34 32
l 32 30
l 30 28
l 28 26
l 26 24
l 24 22
l 22 44
l 44 21
l 21 23
l 23 25
l 25 27
l 27 29
l 29 31
l 46 47
l 47 48
l 48 68
l 68 67
l 67 66
l 66 65
l 65 64
l 64 63
l 63 62
l 62 61
l 61 60
l 60 59
l 59 58
l 58 57
l 57 56
l 56 55
l 55 54
l 54 53
l 53 52
l 52 51
l 51 50
l 50 49
l 49 45
l 45 46
l 75 92
l 92 91
l 91 90
l 90 89
l 89 88
l 88 87
l 87 86
l 86 85
l 85 84
l 84 83
l 83 82
l 82 81
l 81 80
l 80 79
l 79 78
l 78 77
l 77 76
l 76 69
l 69 70
l 70 71
l 71 72
l 72 73
l 73 74
l 74 75
l 94 95
l 95 96
l 96 116
l 116 115
l 115 114
l 114 113
l 113 112
l 112 111
l 111 110
l 110 109
l 109 108
l 108 107
l 107 106
l 106 105
l 105 104
l 104 103
l 103 102
l 102 101
l 101 100
l 100 99
l 99 98
l 98 97
l 97 93
l 93 94
l 118 119
l 119 120
l 120 121
l 121 122
l 122 123
l 123 124
l 124 140
l 140 139
l 139 138
l 138 137
l 137 136
l 136 135
l 135 134
l 134 133
l 133 132
l 132 131
l 131 130
l 130 129
l 129 128
l 128 127
l 127 126
l 126 125
l 125 117
l 117 118
l 142 143
l 143 144
l 144 164
l 164 163
l 163 162
l 162 161
l 161 160
l 160 159
l 159 158
l 158 157
l 157 156
l 156 155
l 155 154
l 154 153
l 153 152
l 152 151
l 151 150
l 150 149
l 149 148
l 148 147
l 147 146
l 146 145
l 145 141
l 141 142
l 171 188
l 188 187
l 187 186
l 186 185
l 185 184
l 184 183
l 183 182
l 182 181
l 181 180
l 180 179
l 179 178
l 178 177
l 177 176
l 176 175
l 175 174
l 174 173
l 173 172
l 172 165
l 165 166
l 166 167
l 167 168
l 168 169
l 169 170
l 170 171
l 190 191
l 191 192
l 192 212
l 212 211
l 211 210
l 210 209
l 209 208
l 208 207
l 207 206
l 206 205
l 205 204
l 204 203
l 203 202
l 202 201
l 201 200
l 200 199
l 199 198
l 198 197
l 197 196
l 196 195
l 195 194
l 194 193
l 193 189
l 189 190
l 219 236
l 236 235
l 235 234
l 234 233
l 233 232
l 232 231
l 231 230
l 230 229
l 229 228
l 228 227
l 227 226
l 226 225
l 225 224
l 224 223
l 223 222
l 222 221
l 221 220
l 220 213
l 213 214
l 214 215
l 215 216
l 216 217
l 217 218
l 218 219
l 238 239
l 239 240
l 240 260
l 260 259
l 259 258
l 258 257
l 257 256
l 256 255
l 255 254
l 254 253
l 253 252
l 252 251
l 251 250
l 250 249
l 249 248
l 248 247
l 247 246
l 246 245
l 245 244
l 244 243
l 243 242
l 242 241
l 241 237
l 237 238
l 262 263
l 263 264
l 264 284
l 284 283
l 283 282
l 282 281
l 281 280
l 280 279
l 279 278
l 278 277
l 277 276
l 276 275
l 275 274
l 274 273
l 273 272
l 272 271
l 271 270
l 270 269
l 269 268
l 268 267
l 267 266
l 266 265
l 265 261
l 261 262
l 286 287
l 287 288
l 288 308
l 308 307
l 307 306
l 306 305
l 305 304
l 304 303
l 303 302
l 302 301
l 301 300
l 300 299
l 299 298
l 298 297
l 297 296
l 296 295
l 295 294
l 294 293
l 293 292
l 292 291
l 291 290
l 290 289
l 289 285
l 285 286
l 315 332
l 332 331
l 331 330
l 330 329
l 329 328
l 328 327
l 327 326
l 326 325
l 325 324
l 324 323
l 323 322
l 322 321
l 321 320
l 320 319
l 319 318
l 318 317
l 317 316
l 316 309
l 309 310
l 310 311
l 311 312
l 312 313
l 313 314
l 314 315
l 347 348
l 348 340
l 340 341
l 341 342
l 342 343
l 343 344
l 344 356
l 356 355
l 355 354
l 354 336
l 336 337
l 337 338
l 338 339
l 339 333
l 333 334
l 334 335
l 335 353
l 353 352
l 352 351
l 351 350
l 350 349
l 349 345
l 345 346
l 346 347
l 363 380
l 380 379
l 379 378
l 378 377
l 377 376
l 376 375
l 375 374
l 374 373
l 373 372
l 372 371
l 371 370
l 370 369
l 369 368
l 368 367
l 367 366
l 366 365
l 365 364
l 364 357
l 357 358
l 358 359
l 359 360
l 360 361
l 361 362
l 362 363
l 382 383
l 383 404
l 404 403
l 403 402
l 402 401
l 401 400
l 400 399
l 399 398
l 398 397
l 397 396
l 396 395
l 395 394
l 394 393
l 393 392
l 392 391
l 391 390
l 390 389
l 389 388
l 388 387
l 387 386
l 386 385
l 385 384
l 384 381
l 381 382
l 419 533
l 533 535
l 535 537
l 537 539
l 539 541
l 541 543
l 543 433
l 433 520
l 520 519
l 519 518
l 518 517
l 517 516
l 516 514
l 514 512
l 512 510
l 510 508
l 508 506
l 506 504
l 504 502
l 502 501
l 501 496
l 496 491
l 491 480
l 480 458
l 458 475
l 475 477
l 477 466
l 466 448
l 448 447
l 447 446
l 446 445
l 445 444
l 444 405
l 405 407
l 407 409
l 409 411
l 411 413
l 413 415
l 415 417
l 417 419
l 606 607
l 607 608
l 608 609
l 609 610
l 610 611
l 611 612
l 612 613
l 613 639
l 639 638
l 638 637
l 637 636
l 636 635
l 635 634
l 634 633
l 633 632
l 632 631
l 631 630
l 630 629
l 629 628
l 628 627
l 627 626
l 626 625
l 625 624
l 624 623
l 623 622
l 622 621
l 621 620
l 620 619
l 619 618
l 618 617
l 617 616
l 616 615
l 615 614
l 614 600
l 600 601
l 601 602
l 602 603
l 603 604
l 604 605
l 605 606
l 641 640
l 640 716
l 716 718
l 718 712
l 712 710
l 710 708
l 708 706
l 706 705
l 705 699
l 699 694
l 694 686
l 686 660
l 660 662
l 662 664
l 664 658
l 658 657
l 657 655
l 655 653
l 653 651
l 651 649
l 649 659
l 659 645
l 645 643
l 643 641
l 813 814
l 814 815
l 815 816
l 816 817
l 817 833
l 833 832
l 832 831
l 831 830
l 830 829
l 829 828
l 828 827
l 827 826
l 826 825
l 825 824
l 824 823
l 823 822
l 822 821
l 821 820
l 820 819
l 819 818
l 818 810
l 810 811
l 811 812
l 812 813
l 835 836
l 836 837
l 837 838
l 838 839
l 839 840
l 840 841
l 841 857
l 857 856
l 856 855
l 855 854
l 854 853
l 853 852
l 852 851
l 851 850
l 850 849
l 849 848
l 848 847
l 847 846
l 846 845
l 845 844
l 844 843
l 843 842
l 842 834
l 834 835
l 859 860
l 860 861
l 861 881
l 881 880
l 880 879
l 879 878
l 878 877
l 877 876
l 876 875
l 875 874
l 874 873
l 873 872
l 872 871
l 871 870
l 870 869
l 869 868
l 868 867
l 867 866
l 866 865
l 865 864
l 864 863
l 863 862
l 862 858
l 858 859
l 888 905
l 905 904
l 904 903
l 903 902
l 902 901
l 901 900
l 900 899
l 899 898
l 898 897
l 897 896
l 896 895
l 895 894
l 894 893
l 893 892
l 892 891
l 891 890
l 890 889
l 889 882
l 882 883
l 883 884
l 884 885
l 885 886
l 886 887
l 887 888
l 907 908
l 908 909
l 909 929
l 929 928
l 928 927
l 927 926
l 926 925
l 925 924
l 924 923
l 923 922
l 922 921
l 921 920
l 920 919
l 919 918
l 918 917
l 917 916
l 916 915
l 915 914
l 914 913
l 913 912
l 912 911
l 911 910
l 910 906
l 906 907
l 931 932
l 932 933
l 933 953
l 953 952
l 952 951
l 951 950
l 950 949
l 949 948
l 948 947
l 947 946
l 946 945
l 945 944
l 944 943
l 943 942
l 942 941
l 941 940
l 940 939
l 939 938
l 938 937
l 937 936
l 936 935
l 935 934
l 934 930
l 930 931
